%!PS-Adobe-3.0 EPSF-3.0
%%Creator: cairo 1.10.2 (http://cairographics.org)
%%CreationDate: Fri Jul  4 09:18:01 2014
%%Pages: 1
%%BoundingBox: 0 -1 43 36
%%DocumentData: Clean7Bit
%%LanguageLevel: 2
%%EndComments
%%BeginProlog
/cairo_eps_state save def
/dict_count countdictstack def
/op_count count 1 sub def
userdict begin
/q { gsave } bind def
/Q { grestore } bind def
/cm { 6 array astore concat } bind def
/w { setlinewidth } bind def
/J { setlinecap } bind def
/j { setlinejoin } bind def
/M { setmiterlimit } bind def
/d { setdash } bind def
/m { moveto } bind def
/l { lineto } bind def
/c { curveto } bind def
/h { closepath } bind def
/re { exch dup neg 3 1 roll 5 3 roll moveto 0 rlineto
      0 exch rlineto 0 rlineto closepath } bind def
/S { stroke } bind def
/f { fill } bind def
/f* { eofill } bind def
/n { newpath } bind def
/W { clip } bind def
/W* { eoclip } bind def
/BT { } bind def
/ET { } bind def
/pdfmark where { pop globaldict /?pdfmark /exec load put }
    { globaldict begin /?pdfmark /pop load def /pdfmark
    /cleartomark load def end } ifelse
/BDC { mark 3 1 roll /BDC pdfmark } bind def
/EMC { mark /EMC pdfmark } bind def
/cairo_store_point { /cairo_point_y exch def /cairo_point_x exch def } def
/Tj { show currentpoint cairo_store_point } bind def
/TJ {
  {
    dup
    type /stringtype eq
    { show } { -0.001 mul 0 cairo_font_matrix dtransform rmoveto } ifelse
  } forall
  currentpoint cairo_store_point
} bind def
/cairo_selectfont { cairo_font_matrix aload pop pop pop 0 0 6 array astore
    cairo_font exch selectfont cairo_point_x cairo_point_y moveto } bind def
/Tf { pop /cairo_font exch def /cairo_font_matrix where
      { pop cairo_selectfont } if } bind def
/Td { matrix translate cairo_font_matrix matrix concatmatrix dup
      /cairo_font_matrix exch def dup 4 get exch 5 get cairo_store_point
      /cairo_font where { pop cairo_selectfont } if } bind def
/Tm { 2 copy 8 2 roll 6 array astore /cairo_font_matrix exch def
      cairo_store_point /cairo_font where { pop cairo_selectfont } if } bind def
/g { setgray } bind def
/rg { setrgbcolor } bind def
/d1 { setcachedevice } bind def
%%EndProlog
%%Page: 1 1
%%BeginPageSetup
%%PageBoundingBox: 0 -1 43 36
%%EndPageSetup
q 0 -1 43 37 rectclip q
0 35.2 43 -36 re W n
0 g
8.066 5.598 m 0 5.598 l 0 1.598 l 6.184 1.598 l h
8.066 5.598 m f
37.016 1.598 m 42.398 1.598 l 42.398 5.598 l 35.133 5.598 l h
37.016 1.598 m f
10.703 11.2 m 3.199 11.2 l 3.199 7.2 l 8.82 7.2 l h
10.703 11.2 m f
34.379 7.2 m 39.199 7.2 l 39.199 11.2 l 32.496 11.2 l h
34.379 7.2 m f
13.336 16.802 m 7.199 16.802 l 7.199 12.802 l 11.457 12.802 l h
13.336 16.802 m f
31.746 12.802 m 35.199 12.802 l 35.199 16.802 l 29.863 16.802 l h
31.746 12.802 m f
15.973 22.399 m 11.199 22.399 l 11.199 18.399 l 14.09 18.399 l h
15.973 22.399 m f
29.109 18.399 m 31.199 18.399 l 31.199 22.399 l 27.227 22.399 l h
29.109 18.399 m f
18.23 27.2 m 18.551 27.88 l 18.984 28.802 l 19.199 28.802 l 19.199 
32.001 l 24 32.001 l 24 28.802 l 24.215 28.802 l 24.648 27.88 l 24.969 
27.2 l 26.473 24.001 l 29.602 24.001 l 28.801 27.2 l 27.199 27.2 l 
27.199 32.001 l 28.801 32.001 l 28.801 35.2 l 14.398 35.2 l 14.398 
32.001 l 16 32.001 l 16 27.2 l 14.398 27.2 l 13.602 24.001 l 16.727 
24.001 l h
18.23 27.2 m f
35.246 1.598 m 33.363 5.598 l 32.613 7.2 l 30.73 11.2 l 29.977 12.802 l 
28.094 16.802 l 27.34 18.399 l 25.461 22.399 l 24.707 24.001 l 23.199 
27.2 l 20 27.2 l 18.496 24.001 l 17.742 22.399 l 15.859 18.399 l 15.105 
16.802 l 13.223 12.802 l 12.469 11.2 l 10.59 7.2 l 9.836 5.598 l 7.953 
1.598 l 7.199 0.001 l 36 0.001 l h
35.246 1.598 m f
Q Q
showpage
%%Trailer
count op_count sub {pop} repeat
countdictstack dict_count sub {end} repeat
cairo_eps_state restore
%%EOF
