%!PS-Adobe-3.0 EPSF-3.0
%%Creator: cairo 1.10.2 (http://cairographics.org)
%%CreationDate: Mon Jan 26 08:52:37 2015
%%Pages: 1
%%BoundingBox: 0 0 373 276
%%DocumentData: Clean7Bit
%%LanguageLevel: 2
%%EndComments
%%BeginProlog
/cairo_eps_state save def
/dict_count countdictstack def
/op_count count 1 sub def
userdict begin
/q { gsave } bind def
/Q { grestore } bind def
/cm { 6 array astore concat } bind def
/w { setlinewidth } bind def
/J { setlinecap } bind def
/j { setlinejoin } bind def
/M { setmiterlimit } bind def
/d { setdash } bind def
/m { moveto } bind def
/l { lineto } bind def
/c { curveto } bind def
/h { closepath } bind def
/re { exch dup neg 3 1 roll 5 3 roll moveto 0 rlineto
      0 exch rlineto 0 rlineto closepath } bind def
/S { stroke } bind def
/f { fill } bind def
/f* { eofill } bind def
/n { newpath } bind def
/W { clip } bind def
/W* { eoclip } bind def
/BT { } bind def
/ET { } bind def
/pdfmark where { pop globaldict /?pdfmark /exec load put }
    { globaldict begin /?pdfmark /pop load def /pdfmark
    /cleartomark load def end } ifelse
/BDC { mark 3 1 roll /BDC pdfmark } bind def
/EMC { mark /EMC pdfmark } bind def
/cairo_store_point { /cairo_point_y exch def /cairo_point_x exch def } def
/Tj { show currentpoint cairo_store_point } bind def
/TJ {
  {
    dup
    type /stringtype eq
    { show } { -0.001 mul 0 cairo_font_matrix dtransform rmoveto } ifelse
  } forall
  currentpoint cairo_store_point
} bind def
/cairo_selectfont { cairo_font_matrix aload pop pop pop 0 0 6 array astore
    cairo_font exch selectfont cairo_point_x cairo_point_y moveto } bind def
/Tf { pop /cairo_font exch def /cairo_font_matrix where
      { pop cairo_selectfont } if } bind def
/Td { matrix translate cairo_font_matrix matrix concatmatrix dup
      /cairo_font_matrix exch def dup 4 get exch 5 get cairo_store_point
      /cairo_font where { pop cairo_selectfont } if } bind def
/Tm { 2 copy 8 2 roll 6 array astore /cairo_font_matrix exch def
      cairo_store_point /cairo_font where { pop cairo_selectfont } if } bind def
/g { setgray } bind def
/rg { setrgbcolor } bind def
/d1 { setcachedevice } bind def
%%EndProlog
%%Page: 1 1
%%BeginPageSetup
%%PageBoundingBox: 0 0 373 276
%%EndPageSetup
q 0 0 373 276 rectclip q
0 g
371.988 63.121 m 371.988 52.801 362.227 43.039 351.91 43.039 c 338.707 
43.039 330.867 36.641 319.59 26.398 c 308.309 16.16 293.188 0 268.707 0 
c 244.227 0 229.027 16.16 217.828 26.398 c 206.547 36.719 199.188 
43.039 185.988 43.039 c 172.789 43.039 165.43 36.641 154.148 26.398 c 
142.867 16.16 127.75 0 103.27 0 c 78.789 0 63.59 16.16 52.387 26.398 c 
41.109 36.719 33.75 43.039 20.547 43.039 c 10.227 43.039 0.469 52.32 
0.469 63.121 c 0.469 73.922 10.227 83.199 20.547 82.719 c 47.988 82.719 
67.027 67.039 79.27 55.762 c 91.508 44.48 97.91 39.602 103.75 39.602 c 
109.59 39.602 115.508 44.48 127.75 55.762 c 139.988 67.039 159.109 
82.719 186.469 82.719 c 213.828 82.719 232.469 67.039 245.188 55.762 c 
257.43 44.48 263.828 39.602 269.668 39.602 c 275.508 39.602 281.43 
44.48 293.668 55.762 c 305.91 67.039 325.027 82.719 352.387 82.719 c 
362.227 83.199 371.988 73.359 371.988 63.121 c h
19.988 236.398 m 33.188 236.398 40.547 230.559 51.828 220.238 c 63.109 
209.922 78.227 193.84 102.707 193.84 c 107.109 193.84 l 129.109 195.762 
142.867 210.48 153.59 220.238 c 163.348 229.039 170.227 234.961 181.027 
236.398 c 182.469 236.398 183.988 236.879 185.91 236.879 c 199.109 
236.879 206.469 231.039 217.75 220.719 c 220.707 218.238 223.59 215.359 
227.027 211.922 c 237.348 203.121 250.07 193.84 268.629 193.84 c 
273.027 193.84 l 295.027 195.762 308.789 210.48 319.508 220.238 c 
329.27 229.039 336.148 234.961 346.949 236.398 c 348.387 236.398 349.91 
236.879 351.828 236.879 c 354.309 236.879 357.188 237.359 359.188 
238.32 c 360.148 238.801 361.668 239.281 362.629 240.238 c 367.988 
243.68 371.91 250 371.91 256.398 c 371.91 258.879 371.43 261.762 
370.469 263.762 c 369.508 266.238 367.988 268.16 366.07 270.16 c 
365.109 271.121 364.148 272.078 363.109 272.641 c 362.148 273.121 
361.188 274.078 359.668 274.559 c 358.227 275.039 357.188 275.52 355.75 
275.52 c 354.309 276 353.27 276 351.828 276 c 346.949 276 l 322.469 
274.078 304.867 260.32 293.109 249.602 c 282.309 239.84 276.469 234.398 
271.109 233.441 c 270.148 233.441 269.668 232.961 269.188 232.961 c 
267.75 232.961 266.227 233.441 264.789 233.922 c 261.828 235.359 257.91 
237.84 253.508 242.238 c 251.027 244.16 248.148 246.641 245.188 249.602 
c 232.949 260.879 213.828 276 186.469 276 c 181.59 276 l 157.109 
274.078 139.508 260.32 127.75 249.602 c 116.949 239.84 111.109 234.398 
105.75 233.441 c 104.789 233.441 104.309 232.961 103.828 232.961 c 
102.387 232.961 100.867 233.441 99.43 233.922 c 97.988 234.398 95.988 
235.84 94.07 236.879 c 90.148 239.359 85.75 243.762 79.348 249.121 c 
67.109 260.398 47.988 275.52 20.629 275.52 c 18.707 275.52 l 8.387 
275.039 -0.891 265.199 0.07 254.961 c -0.57 244.719 9.668 235.922 
19.988 236.398 c h
351.43 179.602 m 346.547 179.602 l 322.07 177.68 304.469 163.441 
292.707 153.199 c 281.91 143.441 276.07 138 270.707 137.039 c 269.75 
137.039 269.27 136.559 268.789 136.559 c 266.867 136.559 264.387 137.52 
261.91 139.039 c 257.508 141.52 252.148 145.922 244.789 153.199 c 
232.547 164.48 213.43 180.16 186.07 180.16 c 181.188 180.16 l 156.707 
178.238 139.109 164 127.348 153.762 c 116.547 144 110.707 138.559 
105.348 137.602 c 104.387 137.602 103.91 137.121 103.43 137.121 c 
101.508 137.121 99.027 138.078 96.547 139.602 c 95.59 140.078 94.629 
140.559 93.59 141.039 c 89.668 143.52 85.27 147.922 78.867 153.281 c 
66.629 164.559 47.508 180.238 20.148 180.238 c 9.828 180.238 0.07 
170.961 0.07 160.16 c 0.07 149.359 9.828 140.078 20.148 140.559 c 
33.348 140.559 40.707 134.16 51.988 123.922 c 63.27 113.602 78.387 
97.52 102.867 97.52 c 107.27 97.52 l 129.27 99.441 143.027 114.16 
153.75 123.922 c 160.629 130.32 166.469 135.199 172.867 137.602 c 
174.309 138.078 175.348 138.559 176.789 139.039 c 178.227 139.52 179.75 
139.52 181.188 140 c 182.629 140 184.148 140.48 186.07 140.48 c 199.27 
140.48 206.629 134.078 217.91 123.84 c 220.867 121.359 223.75 118.48 
227.188 115.039 c 237.508 106.238 250.227 96.961 268.789 96.961 c 
273.188 96.961 l 295.188 98.879 308.949 113.602 319.668 123.359 c 
326.547 129.762 332.387 134.641 338.789 137.039 c 340.227 137.52 341.27 
138 342.707 138.48 c 344.148 138.961 345.668 138.961 347.109 139.441 c 
348.547 139.441 350.07 139.922 351.988 139.922 c 362.309 139.922 372.07 
149.199 372.07 159.52 c 371.988 169.84 362.227 179.602 351.43 179.602 c 
h
351.43 179.602 m f
Q Q
showpage
%%Trailer
count op_count sub {pop} repeat
countdictstack dict_count sub {end} repeat
cairo_eps_state restore
%%EOF
