%!PS-Adobe-3.0 EPSF-3.0
%%Creator: cairo 1.10.2 (http://cairographics.org)
%%CreationDate: Thu Apr  9 12:39:07 2015
%%Pages: 1
%%BoundingBox: 0 -1 134 123
%%DocumentData: Clean7Bit
%%LanguageLevel: 2
%%EndComments
%%BeginProlog
/cairo_eps_state save def
/dict_count countdictstack def
/op_count count 1 sub def
userdict begin
/q { gsave } bind def
/Q { grestore } bind def
/cm { 6 array astore concat } bind def
/w { setlinewidth } bind def
/J { setlinecap } bind def
/j { setlinejoin } bind def
/M { setmiterlimit } bind def
/d { setdash } bind def
/m { moveto } bind def
/l { lineto } bind def
/c { curveto } bind def
/h { closepath } bind def
/re { exch dup neg 3 1 roll 5 3 roll moveto 0 rlineto
      0 exch rlineto 0 rlineto closepath } bind def
/S { stroke } bind def
/f { fill } bind def
/f* { eofill } bind def
/n { newpath } bind def
/W { clip } bind def
/W* { eoclip } bind def
/BT { } bind def
/ET { } bind def
/pdfmark where { pop globaldict /?pdfmark /exec load put }
    { globaldict begin /?pdfmark /pop load def /pdfmark
    /cleartomark load def end } ifelse
/BDC { mark 3 1 roll /BDC pdfmark } bind def
/EMC { mark /EMC pdfmark } bind def
/cairo_store_point { /cairo_point_y exch def /cairo_point_x exch def } def
/Tj { show currentpoint cairo_store_point } bind def
/TJ {
  {
    dup
    type /stringtype eq
    { show } { -0.001 mul 0 cairo_font_matrix dtransform rmoveto } ifelse
  } forall
  currentpoint cairo_store_point
} bind def
/cairo_selectfont { cairo_font_matrix aload pop pop pop 0 0 6 array astore
    cairo_font exch selectfont cairo_point_x cairo_point_y moveto } bind def
/Tf { pop /cairo_font exch def /cairo_font_matrix where
      { pop cairo_selectfont } if } bind def
/Td { matrix translate cairo_font_matrix matrix concatmatrix dup
      /cairo_font_matrix exch def dup 4 get exch 5 get cairo_store_point
      /cairo_font where { pop cairo_selectfont } if } bind def
/Tm { 2 copy 8 2 roll 6 array astore /cairo_font_matrix exch def
      cairo_store_point /cairo_font where { pop cairo_selectfont } if } bind def
/g { setgray } bind def
/rg { setrgbcolor } bind def
/d1 { setcachedevice } bind def
%%EndProlog
%%Page: 1 1
%%BeginPageSetup
%%PageBoundingBox: 0 -1 134 123
%%EndPageSetup
q 0 -1 134 124 rectclip q
0 122.238 134 -123 re W n
0 g
133.797 38.856 m 133.793 39.039 133.777 39.219 133.738 39.402 c 133.734 
39.426 133.73 39.445 133.723 39.469 c 133.688 39.629 133.637 39.785 
133.578 39.938 c 133.559 39.988 133.539 40.039 133.516 40.09 c 133.5 
40.121 133.492 40.156 133.477 40.188 c 124.129 59.262 l 127 60.414 
129.035 63.223 129.035 66.5 c 129.035 103.488 l 129.035 107.984 125.375 
111.645 120.875 111.645 c 120.383 111.645 119.883 111.602 119.391 
111.512 c 117.668 111.203 116.113 110.328 114.941 109.082 c 107.457 
117.676 86.375 122.238 66.309 122.238 c 46.719 122.238 26.16 117.887 
18.234 109.688 c 17.156 110.609 15.844 111.258 14.414 111.512 c 13.922 
111.602 13.422 111.645 12.926 111.645 c 8.43 111.645 4.77 107.988 4.77 
103.488 c 4.77 66.5 l 4.77 63.223 6.805 60.414 9.676 59.262 c 0.328 
40.188 l 0.312 40.156 0.301 40.121 0.289 40.09 c 0.266 40.039 0.246 
39.992 0.227 39.942 c 0.164 39.785 0.113 39.629 0.078 39.469 c 0.074 
39.445 0.066 39.426 0.062 39.399 c 0.027 39.219 0.012 39.039 0.008 
38.856 c 0.008 38.828 0 38.805 0 38.777 c 0 14.266 l 0 12.5 1.434 
11.067 3.199 11.067 c 11.824 11.067 l 11.824 3.199 l 11.824 1.434 
13.258 0 15.027 0 c 28.68 0 l 30.445 0 31.879 1.434 31.879 3.199 c 
31.879 11.067 l 103.078 11.067 l 103.078 3.199 l 103.078 1.434 104.512 
0 106.281 0 c 119.934 0 l 121.703 0 123.137 1.434 123.137 3.199 c 
123.137 11.067 l 130.602 11.067 l 132.371 11.067 133.801 12.5 133.801 
14.266 c 133.801 38.777 l 133.805 38.805 133.797 38.828 133.797 38.856 
c h
74.789 91.481 m 74.789 93.313 76.281 94.805 78.109 94.805 c 103.16 
94.805 l 104.988 94.805 106.477 93.313 106.477 91.481 c 106.477 76.918 
l 106.477 75.09 104.988 73.598 103.16 73.598 c 78.109 73.598 l 76.281 
73.598 74.789 75.09 74.789 76.918 c h
27.324 91.481 m 27.324 93.313 28.812 94.805 30.645 94.805 c 55.691 
94.805 l 57.523 94.805 59.012 93.313 59.012 91.481 c 59.012 76.918 l 
59.012 75.09 57.523 73.598 55.691 73.598 c 30.645 73.598 l 28.812 
73.598 27.324 75.09 27.324 76.918 c h
8.332 41.977 m 22.711 71.32 l 24.473 68.832 27.371 67.199 30.645 67.199 
c 55.691 67.199 l 59.293 67.199 62.438 69.172 64.117 72.09 c 69.688 
72.09 l 71.367 69.172 74.508 67.199 78.109 67.199 c 103.16 67.199 l 
106.434 67.199 109.328 68.832 111.09 71.32 c 125.473 41.981 l 8.332 
41.981 l h
8.332 41.977 m f
Q Q
showpage
%%Trailer
count op_count sub {pop} repeat
countdictstack dict_count sub {end} repeat
cairo_eps_state restore
%%EOF
