%!PS-Adobe-3.0 EPSF-3.0
%%Creator: cairo 1.10.2 (http://cairographics.org)
%%CreationDate: Mon Jan 12 16:25:56 2015
%%Pages: 1
%%BoundingBox: 0 -1 32 38
%%DocumentData: Clean7Bit
%%LanguageLevel: 2
%%EndComments
%%BeginProlog
/cairo_eps_state save def
/dict_count countdictstack def
/op_count count 1 sub def
userdict begin
/q { gsave } bind def
/Q { grestore } bind def
/cm { 6 array astore concat } bind def
/w { setlinewidth } bind def
/J { setlinecap } bind def
/j { setlinejoin } bind def
/M { setmiterlimit } bind def
/d { setdash } bind def
/m { moveto } bind def
/l { lineto } bind def
/c { curveto } bind def
/h { closepath } bind def
/re { exch dup neg 3 1 roll 5 3 roll moveto 0 rlineto
      0 exch rlineto 0 rlineto closepath } bind def
/S { stroke } bind def
/f { fill } bind def
/f* { eofill } bind def
/n { newpath } bind def
/W { clip } bind def
/W* { eoclip } bind def
/BT { } bind def
/ET { } bind def
/pdfmark where { pop globaldict /?pdfmark /exec load put }
    { globaldict begin /?pdfmark /pop load def /pdfmark
    /cleartomark load def end } ifelse
/BDC { mark 3 1 roll /BDC pdfmark } bind def
/EMC { mark /EMC pdfmark } bind def
/cairo_store_point { /cairo_point_y exch def /cairo_point_x exch def } def
/Tj { show currentpoint cairo_store_point } bind def
/TJ {
  {
    dup
    type /stringtype eq
    { show } { -0.001 mul 0 cairo_font_matrix dtransform rmoveto } ifelse
  } forall
  currentpoint cairo_store_point
} bind def
/cairo_selectfont { cairo_font_matrix aload pop pop pop 0 0 6 array astore
    cairo_font exch selectfont cairo_point_x cairo_point_y moveto } bind def
/Tf { pop /cairo_font exch def /cairo_font_matrix where
      { pop cairo_selectfont } if } bind def
/Td { matrix translate cairo_font_matrix matrix concatmatrix dup
      /cairo_font_matrix exch def dup 4 get exch 5 get cairo_store_point
      /cairo_font where { pop cairo_selectfont } if } bind def
/Tm { 2 copy 8 2 roll 6 array astore /cairo_font_matrix exch def
      cairo_store_point /cairo_font where { pop cairo_selectfont } if } bind def
/g { setgray } bind def
/rg { setrgbcolor } bind def
/d1 { setcachedevice } bind def
%%EndProlog
%%Page: 1 1
%%BeginPageSetup
%%PageBoundingBox: 0 -1 32 38
%%EndPageSetup
q 0 -1 32 39 rectclip q
0 37.152 32 -38 re W n
0 g
29.941 4.617 m 21.992 7.922 l 29.949 11.207 l 31.172 11.714 31.758 
13.117 31.254 14.343 c 30.746 15.566 29.34 16.152 28.117 15.644 c 
15.723 10.527 l 3.336 15.675 l 2.113 16.183 0.707 15.605 0.199 14.379 c 
-0.309 13.156 0.27 11.75 1.492 11.242 c 9.445 7.937 l 1.484 4.652 l 
0.262 4.148 -0.324 2.742 0.184 1.519 c 0.566 0.593 1.461 0.031 2.402 
0.031 c 2.707 0.031 3.02 0.089 3.316 0.214 c 15.715 5.332 l 28.098 
0.183 l 28.398 0.058 28.711 -0 29.02 -0 c 29.961 -0 30.855 0.558 31.238 
1.48 c 31.746 2.703 31.164 4.109 29.941 4.617 c h
29.941 4.617 m f
15.715 13.586 m 21.328 13.586 25.875 18.136 25.875 23.742 c 25.875 
25.152 25.234 27.011 24.277 29.004 c 24.152 29.261 23.859 29.406 23.574 
29.343 c 23.293 29.281 23.086 29.031 23.082 28.742 c 23.043 26.632 
22.473 25.199 21.773 24.23 c 21.691 24.117 21.539 24.082 21.414 24.148 
c 21.293 24.214 21.238 24.363 21.289 24.492 c 21.781 25.789 21.543 
27.714 19.035 30.425 c 16.684 32.961 16.105 34.957 16.215 36.414 c 
16.238 36.699 16.078 36.972 15.812 37.089 c 15.547 37.211 15.234 37.148 
15.035 36.941 c 12.637 34.449 9.684 30.375 10.539 26.25 c 10.574 26.074 
10.484 25.898 10.316 25.832 c 10.152 25.765 9.965 25.828 9.867 25.98 c 
9.258 26.964 8.699 28.437 8.906 30.379 c 8.938 30.691 8.746 30.988 
8.441 31.086 c 8.141 31.179 7.809 31.05 7.656 30.769 c 6.555 28.781 
5.562 26.285 5.562 23.742 c 5.559 18.136 10.105 13.586 15.715 13.586 c 
h
15.715 13.586 m f
Q Q
showpage
%%Trailer
count op_count sub {pop} repeat
countdictstack dict_count sub {end} repeat
cairo_eps_state restore
%%EOF
