%!PS-Adobe-3.0 EPSF-3.0
%%Creator: cairo 1.10.2 (http://cairographics.org)
%%CreationDate: Fri Jul  4 09:18:06 2014
%%Pages: 1
%%BoundingBox: 0 -1 462 337
%%DocumentData: Clean7Bit
%%LanguageLevel: 2
%%EndComments
%%BeginProlog
/cairo_eps_state save def
/dict_count countdictstack def
/op_count count 1 sub def
userdict begin
/q { gsave } bind def
/Q { grestore } bind def
/cm { 6 array astore concat } bind def
/w { setlinewidth } bind def
/J { setlinecap } bind def
/j { setlinejoin } bind def
/M { setmiterlimit } bind def
/d { setdash } bind def
/m { moveto } bind def
/l { lineto } bind def
/c { curveto } bind def
/h { closepath } bind def
/re { exch dup neg 3 1 roll 5 3 roll moveto 0 rlineto
      0 exch rlineto 0 rlineto closepath } bind def
/S { stroke } bind def
/f { fill } bind def
/f* { eofill } bind def
/n { newpath } bind def
/W { clip } bind def
/W* { eoclip } bind def
/BT { } bind def
/ET { } bind def
/pdfmark where { pop globaldict /?pdfmark /exec load put }
    { globaldict begin /?pdfmark /pop load def /pdfmark
    /cleartomark load def end } ifelse
/BDC { mark 3 1 roll /BDC pdfmark } bind def
/EMC { mark /EMC pdfmark } bind def
/cairo_store_point { /cairo_point_y exch def /cairo_point_x exch def } def
/Tj { show currentpoint cairo_store_point } bind def
/TJ {
  {
    dup
    type /stringtype eq
    { show } { -0.001 mul 0 cairo_font_matrix dtransform rmoveto } ifelse
  } forall
  currentpoint cairo_store_point
} bind def
/cairo_selectfont { cairo_font_matrix aload pop pop pop 0 0 6 array astore
    cairo_font exch selectfont cairo_point_x cairo_point_y moveto } bind def
/Tf { pop /cairo_font exch def /cairo_font_matrix where
      { pop cairo_selectfont } if } bind def
/Td { matrix translate cairo_font_matrix matrix concatmatrix dup
      /cairo_font_matrix exch def dup 4 get exch 5 get cairo_store_point
      /cairo_font where { pop cairo_selectfont } if } bind def
/Tm { 2 copy 8 2 roll 6 array astore /cairo_font_matrix exch def
      cairo_store_point /cairo_font where { pop cairo_selectfont } if } bind def
/g { setgray } bind def
/rg { setrgbcolor } bind def
/d1 { setcachedevice } bind def
%%EndProlog
%%Page: 1 1
%%BeginPageSetup
%%PageBoundingBox: 0 -1 462 337
%%EndPageSetup
q 0 -1 462 338 rectclip q
0 336.608 462 -337 re W n
0 g
338.949 107.108 m 328.953 107.108 l 328.953 47.354 l 331.43 48.362 334 
49.069 336.602 49.635 c 336.602 85.092 l 350.441 88.596 361.562 98.846 
366.266 112.167 c 360.867 114.522 355.871 117.62 351.41 121.354 c 
350.277 114.588 346.898 107.108 338.949 107.108 c h
338.949 107.108 m f
313.652 85.604 m 313.652 52.143 l 316.375 50.46 318.938 48.51 321.301 
46.315 c 321.301 114.76 l 315.617 114.76 l 314.875 114.76 314.277 
114.874 313.652 114.963 c 310.484 115.417 308.602 116.831 307.605 118.1 
c 305.578 120.694 305.793 123.776 306 125.065 c 306 137.71 l 306 
139.819 307.715 141.534 309.824 141.534 c 311.938 141.534 313.652 
139.819 313.652 137.71 c 313.535 123.588 l 313.48 123.288 313.52 
122.409 313.645 122.409 c 321.301 122.409 l 321.301 137.71 l 321.301 
138.237 321.406 138.741 321.598 139.202 c 322.18 140.569 323.535 
141.534 325.125 141.534 c 327.238 141.534 328.949 139.819 328.949 
137.71 c 328.949 114.76 l 338.949 114.76 l 343.293 114.76 344.25 
124.381 344.25 126.768 c 344.25 128.46 l 341.184 132.026 338.52 135.936 
336.332 140.135 c 335.555 141.631 334.801 143.155 334.145 144.721 c 
331.094 151.999 329.402 159.979 329.402 168.338 c 329.402 168.499 
329.426 168.659 329.426 168.819 c 328.332 168.905 327.238 168.987 
326.129 168.987 c 302.59 168.987 283.504 149.901 283.504 126.362 c 
283.496 107.163 296.195 90.936 313.652 85.604 c h
313.652 85.604 m f
124.613 32.253 m 133.516 42.901 146.797 48.838 161.133 48.838 c 169.266 
48.838 176.906 46.698 183.602 42.963 c 183.602 336.608 l 99.453 336.608 
l 99.453 49.206 l 109.41 46.366 118.23 40.362 124.613 32.253 c h
122.402 91.807 m 130.051 91.807 l 130.051 76.506 l 122.402 76.506 l h
122.402 114.76 m 130.051 114.76 l 130.051 99.46 l 122.402 99.46 l h
122.402 137.71 m 130.051 137.71 l 130.051 122.409 l 122.402 122.409 l h
122.402 160.659 m 130.051 160.659 l 130.051 145.358 l 122.402 145.358 l 
h
122.402 183.608 m 130.051 183.608 l 130.051 168.307 l 122.402 168.307 l 
h
122.402 206.557 m 130.051 206.557 l 130.051 191.26 l 122.402 191.26 l h
122.402 229.506 m 130.051 229.506 l 130.051 214.21 l 122.402 214.21 l h
122.402 252.456 m 130.051 252.456 l 130.051 237.159 l 122.402 237.159 l 
h
122.402 275.409 m 130.051 275.409 l 130.051 260.108 l 122.402 260.108 l 
h
160.652 260.108 m 153 260.108 l 153 275.409 l 160.652 275.409 l h
160.652 237.159 m 153 237.159 l 153 252.46 l 160.652 252.46 l h
160.652 214.21 m 153 214.21 l 153 229.506 l 160.652 229.506 l h
160.652 191.256 m 153 191.256 l 153 206.557 l 160.652 206.557 l h
160.652 168.307 m 153 168.307 l 153 183.608 l 160.652 183.608 l h
160.652 145.358 m 153 145.358 l 153 160.659 l 160.652 160.659 l h
160.652 122.409 m 153 122.409 l 153 137.71 l 160.652 137.71 l h
160.652 99.456 m 153 99.456 l 153 114.756 l 160.652 114.756 l h
160.652 76.506 m 153 76.506 l 153 91.807 l 160.652 91.807 l h
137.699 91.807 m 145.352 91.807 l 145.352 76.506 l 137.699 76.506 l h
137.699 114.76 m 145.352 114.76 l 145.352 99.46 l 137.699 99.46 l h
137.699 137.71 m 145.352 137.71 l 145.352 122.409 l 137.699 122.409 l h
137.699 160.659 m 145.352 160.659 l 145.352 145.358 l 137.699 145.358 l 
h
137.699 183.608 m 145.352 183.608 l 145.352 168.307 l 137.699 168.307 l 
h
137.699 206.557 m 145.352 206.557 l 145.352 191.26 l 137.699 191.26 l h
137.699 229.506 m 145.352 229.506 l 145.352 214.21 l 137.699 214.21 l h
137.699 252.456 m 145.352 252.456 l 145.352 237.159 l 137.699 237.159 l 
h
145.352 260.108 m 137.699 260.108 l 137.699 275.409 l 145.352 275.409 l 
h
160.652 306.006 m 160.652 283.057 l 153 283.057 l 153 306.006 l h
145.352 306.006 m 145.352 283.057 l 137.699 283.057 l 137.699 306.006 l 
h
122.402 306.006 m 130.051 306.006 l 130.051 283.057 l 122.402 283.057 l 
h
122.402 306.006 m f
41.434 11.124 m 41.434 23.104 46.23 32.436 53.551 39.077 c 55.867 
41.178 58.438 43.006 61.199 44.553 c 62.047 45.03 62.906 45.479 63.785 
45.909 c 61.199 45.909 l 61.199 61.21 l 76.5 61.21 l 76.5 50.046 l 
79.891 50.69 83.34 51.049 86.789 51.049 c 88.48 51.049 90.148 50.928 
91.801 50.741 c 91.801 168.307 l 0 168.307 l 0 0.006 l 42.367 0.006 l 
42.289 0.549 l 41.699 3.772 41.434 8.432 41.434 11.124 c h
15.301 84.159 m 30.602 84.159 l 30.602 68.858 l 15.301 68.858 l h
15.301 107.108 m 30.602 107.108 l 30.602 91.807 l 15.301 91.807 l h
15.301 130.057 m 30.602 130.057 l 30.602 114.756 l 15.301 114.756 l h
53.551 114.76 m 38.25 114.76 l 38.25 130.057 l 53.551 130.057 l h
53.551 91.807 m 38.25 91.807 l 38.25 107.108 l 53.551 107.108 l h
38.25 84.159 m 53.551 84.159 l 53.551 68.858 l 38.25 68.858 l h
76.5 68.858 m 61.199 68.858 l 61.199 84.159 l 76.5 84.159 l h
76.5 91.807 m 61.199 91.807 l 61.199 107.108 l 76.5 107.108 l h
76.5 114.76 m 61.199 114.76 l 61.199 130.057 l 76.5 130.057 l h
76.5 137.71 m 61.199 137.71 l 61.199 153.006 l 76.5 153.006 l h
53.551 137.71 m 38.25 137.71 l 38.25 153.006 l 53.551 153.006 l h
15.301 153.006 m 30.602 153.006 l 30.602 137.71 l 15.301 137.71 l h
15.301 61.21 m 30.602 61.21 l 30.602 45.909 l 15.301 45.909 l h
38.25 61.21 m 53.551 61.21 l 53.551 45.909 l 38.25 45.909 l h
38.25 61.21 m f
208.586 2.241 m 208.664 0.006 l 241.266 0.006 l 241.191 0.549 l 240.602 
3.772 240.332 8.432 240.332 11.124 c 240.332 30.264 251.562 46.788 
267.75 54.585 c 267.75 214.21 l 191.25 214.21 l 191.25 37.655 l 201.355 
29.077 207.996 16.37 208.586 2.241 c h
252.453 99.456 m 244.801 99.456 l 244.801 107.108 l 252.453 107.108 l h
221.852 107.108 m 237.152 107.108 l 237.152 99.46 l 221.852 99.46 l h
221.852 130.057 m 237.152 130.057 l 237.152 114.756 l 221.852 114.756 l 
h
221.852 153.006 m 237.152 153.006 l 237.152 137.71 l 221.852 137.71 l h
221.852 175.96 m 237.152 175.96 l 237.152 160.659 l 221.852 160.659 l h
252.453 160.659 m 244.801 160.659 l 244.801 175.956 l 252.453 175.956 l 
h
252.453 137.71 m 244.801 137.71 l 244.801 153.006 l 252.453 153.006 l h
252.453 114.76 m 244.801 114.76 l 244.801 130.057 l 252.453 130.057 l h
252.453 183.608 m 244.801 183.608 l 244.801 198.909 l 252.453 198.909 l 
h
237.152 183.608 m 221.852 183.608 l 221.852 198.909 l 237.152 198.909 l 
h
206.551 198.909 m 214.199 198.909 l 214.199 183.608 l 206.551 183.608 l 
h
206.551 175.96 m 214.199 175.96 l 214.199 160.659 l 206.551 160.659 l h
206.551 153.006 m 214.199 153.006 l 214.199 137.71 l 206.551 137.71 l h
206.551 130.057 m 214.199 130.057 l 214.199 114.756 l 206.551 114.756 l 
h
206.551 107.108 m 214.199 107.108 l 214.199 99.46 l 206.551 99.46 l h
206.551 91.807 m 252.449 91.807 l 252.449 84.159 l 206.547 84.159 l 
206.547 91.807 l h
206.551 76.506 m 252.449 76.506 l 252.449 68.858 l 206.551 68.858 l h
206.551 61.21 m 252.449 61.21 l 252.449 53.557 l 206.551 53.557 l h
206.551 61.21 m f
344.25 141.573 m 346.395 137.862 348.965 134.432 351.902 131.358 c 
356.523 126.514 362.031 122.561 368.172 119.713 c 372.648 117.643 
377.461 116.182 382.5 115.409 c 382.5 34.768 l 383.25 33.944 384.016 
33.139 384.711 32.26 c 386.363 34.241 388.215 36.003 390.152 37.647 c 
390.152 153.006 l 379.633 153.006 l 370.516 153.006 367.203 160.932 
367.203 166.256 c 367.203 183.608 l 367.203 185.717 368.914 187.432 
371.027 187.432 c 373.137 187.432 374.852 185.717 374.852 183.608 c 
374.852 166.256 l 374.875 164.963 375.281 160.659 379.633 160.659 c 
390.152 160.659 l 390.152 183.608 l 390.152 184.135 390.258 184.639 
390.449 185.1 c 391.031 186.471 392.387 187.432 393.977 187.432 c 
396.086 187.432 397.801 185.721 397.801 183.608 c 397.801 137.71 l 
406.805 137.71 l 408.504 137.71 409.742 138.19 410.691 139.221 c 
413.141 141.893 413.27 147.506 413.117 149.268 c 413.102 168.307 l 
413.102 170.421 414.812 172.135 416.926 172.135 c 419.035 172.135 
420.75 170.421 420.75 168.307 c 420.75 149.596 l 420.828 148.885 
421.445 139.628 416.32 134.046 c 413.918 131.436 410.629 130.057 
406.805 130.057 c 397.801 130.057 l 397.801 42.909 l 400.238 44.249 
402.789 45.405 405.449 46.292 c 405.449 116.831 l 427.863 123.256 
444.289 143.858 444.289 168.338 c 444.289 197.952 420.281 221.956 
390.668 221.956 c 361.055 221.956 337.051 197.952 337.051 168.338 c 
337.051 168.053 337.09 167.788 337.09 167.506 c 337.234 158.065 339.828 
149.229 344.25 141.573 c h
344.25 141.573 m f
191.25 0.006 m 200.945 0.006 l 200.555 10.022 196.898 18.827 191.25 
25.713 c 188.988 28.475 186.477 30.975 183.602 33.018 c 177.207 37.561 
169.504 40.241 161.133 40.241 c 144.664 40.241 130.535 32.174 124.414 
17.948 c 119.961 28.987 110.82 37.6 99.453 41.35 c 97.004 42.159 94.434 
42.686 91.801 43.018 c 90.156 43.221 88.496 43.401 86.793 43.401 c 
78.039 43.401 68.5 40.378 61.203 34.503 c 59.742 33.323 58.387 32.014 
57.133 30.608 c 52.262 25.155 49.086 18.018 49.086 9.213 c 49.086 6.717 
49.391 7.659 49.82 0.01 c 191.25 0.01 l h
191.25 0.006 m f
421.234 40.233 m 415.609 40.233 410.301 39.221 405.453 37.424 c 402.727 
36.417 400.172 35.131 397.801 33.592 c 394.949 31.733 392.363 29.538 
390.152 26.952 c 387.887 24.303 385.961 21.315 384.512 17.948 c 383.941 
19.362 383.223 20.702 382.5 22.034 c 375.641 34.725 362.328 43.401 
346.891 43.401 c 343.305 43.401 339.891 42.78 336.602 41.878 c 333.934 
41.151 331.375 40.194 328.953 38.956 c 326.41 37.663 323.965 36.21 
321.746 34.44 c 321.609 34.631 321.438 34.807 321.301 34.999 c 319.121 
37.975 316.535 40.62 313.652 42.909 c 306.754 48.385 298.086 51.721 
288.59 51.721 c 280.965 51.721 273.848 49.358 267.754 45.405 c 255.926 
37.737 247.984 23.999 247.984 9.202 c 247.984 6.71 248.289 7.651 
248.719 -0.001 c 461.043 -0.001 l 460.156 22.96 442.746 40.233 421.234 
40.233 c h
421.234 40.233 m f
Q Q
showpage
%%Trailer
count op_count sub {pop} repeat
countdictstack dict_count sub {end} repeat
cairo_eps_state restore
%%EOF
