%!PS-Adobe-3.0 EPSF-3.0
%%Creator: cairo 1.10.2 (http://cairographics.org)
%%CreationDate: Thu Jan  8 08:46:20 2015
%%Pages: 1
%%BoundingBox: 0 -1 37 36
%%DocumentData: Clean7Bit
%%LanguageLevel: 2
%%EndComments
%%BeginProlog
/cairo_eps_state save def
/dict_count countdictstack def
/op_count count 1 sub def
userdict begin
/q { gsave } bind def
/Q { grestore } bind def
/cm { 6 array astore concat } bind def
/w { setlinewidth } bind def
/J { setlinecap } bind def
/j { setlinejoin } bind def
/M { setmiterlimit } bind def
/d { setdash } bind def
/m { moveto } bind def
/l { lineto } bind def
/c { curveto } bind def
/h { closepath } bind def
/re { exch dup neg 3 1 roll 5 3 roll moveto 0 rlineto
      0 exch rlineto 0 rlineto closepath } bind def
/S { stroke } bind def
/f { fill } bind def
/f* { eofill } bind def
/n { newpath } bind def
/W { clip } bind def
/W* { eoclip } bind def
/BT { } bind def
/ET { } bind def
/pdfmark where { pop globaldict /?pdfmark /exec load put }
    { globaldict begin /?pdfmark /pop load def /pdfmark
    /cleartomark load def end } ifelse
/BDC { mark 3 1 roll /BDC pdfmark } bind def
/EMC { mark /EMC pdfmark } bind def
/cairo_store_point { /cairo_point_y exch def /cairo_point_x exch def } def
/Tj { show currentpoint cairo_store_point } bind def
/TJ {
  {
    dup
    type /stringtype eq
    { show } { -0.001 mul 0 cairo_font_matrix dtransform rmoveto } ifelse
  } forall
  currentpoint cairo_store_point
} bind def
/cairo_selectfont { cairo_font_matrix aload pop pop pop 0 0 6 array astore
    cairo_font exch selectfont cairo_point_x cairo_point_y moveto } bind def
/Tf { pop /cairo_font exch def /cairo_font_matrix where
      { pop cairo_selectfont } if } bind def
/Td { matrix translate cairo_font_matrix matrix concatmatrix dup
      /cairo_font_matrix exch def dup 4 get exch 5 get cairo_store_point
      /cairo_font where { pop cairo_selectfont } if } bind def
/Tm { 2 copy 8 2 roll 6 array astore /cairo_font_matrix exch def
      cairo_store_point /cairo_font where { pop cairo_selectfont } if } bind def
/g { setgray } bind def
/rg { setrgbcolor } bind def
/d1 { setcachedevice } bind def
%%EndProlog
%%Page: 1 1
%%BeginPageSetup
%%PageBoundingBox: 0 -1 37 36
%%EndPageSetup
q 0 -1 37 37 rectclip q
0 35.769 37 -36 re W n
0 g
0.293 2.914 m 16.656 29.371 l 13.793 33.796 l 13.41 34.39 13.582 35.179 
14.172 35.562 c 14.766 35.949 15.559 35.777 15.941 35.183 c 18.219 
31.66 l 20.496 35.183 l 20.879 35.777 21.672 35.949 22.262 35.562 c 
22.855 35.179 23.027 34.39 22.645 33.796 c 19.781 29.367 l 36.148 2.914 
l 36.516 2.324 36.535 1.589 36.199 0.98 c 35.863 0.375 35.223 -0 34.531 
-0 c 27.285 -0 l 26.633 -0 26.023 0.336 25.668 0.886 c 19.516 10.492 l 
19.23 10.933 18.742 11.199 18.219 11.199 c 17.695 11.199 17.207 10.933 
16.922 10.488 c 10.773 0.886 l 10.422 0.336 9.812 -0 9.156 -0 c 1.91 -0 
l 1.215 -0 0.574 0.371 0.238 0.98 c -0.098 1.589 -0.078 2.324 0.293 
2.914 c h
0.293 2.914 m f
Q Q
showpage
%%Trailer
count op_count sub {pop} repeat
countdictstack dict_count sub {end} repeat
cairo_eps_state restore
%%EOF
