%!PS-Adobe-3.0 EPSF-3.0
%%Creator: cairo 1.10.2 (http://cairographics.org)
%%CreationDate: Thu Jul 31 07:30:11 2014
%%Pages: 1
%%BoundingBox: 0 -1 387 274
%%DocumentData: Clean7Bit
%%LanguageLevel: 2
%%EndComments
%%BeginProlog
/cairo_eps_state save def
/dict_count countdictstack def
/op_count count 1 sub def
userdict begin
/q { gsave } bind def
/Q { grestore } bind def
/cm { 6 array astore concat } bind def
/w { setlinewidth } bind def
/J { setlinecap } bind def
/j { setlinejoin } bind def
/M { setmiterlimit } bind def
/d { setdash } bind def
/m { moveto } bind def
/l { lineto } bind def
/c { curveto } bind def
/h { closepath } bind def
/re { exch dup neg 3 1 roll 5 3 roll moveto 0 rlineto
      0 exch rlineto 0 rlineto closepath } bind def
/S { stroke } bind def
/f { fill } bind def
/f* { eofill } bind def
/n { newpath } bind def
/W { clip } bind def
/W* { eoclip } bind def
/BT { } bind def
/ET { } bind def
/pdfmark where { pop globaldict /?pdfmark /exec load put }
    { globaldict begin /?pdfmark /pop load def /pdfmark
    /cleartomark load def end } ifelse
/BDC { mark 3 1 roll /BDC pdfmark } bind def
/EMC { mark /EMC pdfmark } bind def
/cairo_store_point { /cairo_point_y exch def /cairo_point_x exch def } def
/Tj { show currentpoint cairo_store_point } bind def
/TJ {
  {
    dup
    type /stringtype eq
    { show } { -0.001 mul 0 cairo_font_matrix dtransform rmoveto } ifelse
  } forall
  currentpoint cairo_store_point
} bind def
/cairo_selectfont { cairo_font_matrix aload pop pop pop 0 0 6 array astore
    cairo_font exch selectfont cairo_point_x cairo_point_y moveto } bind def
/Tf { pop /cairo_font exch def /cairo_font_matrix where
      { pop cairo_selectfont } if } bind def
/Td { matrix translate cairo_font_matrix matrix concatmatrix dup
      /cairo_font_matrix exch def dup 4 get exch 5 get cairo_store_point
      /cairo_font where { pop cairo_selectfont } if } bind def
/Tm { 2 copy 8 2 roll 6 array astore /cairo_font_matrix exch def
      cairo_store_point /cairo_font where { pop cairo_selectfont } if } bind def
/g { setgray } bind def
/rg { setrgbcolor } bind def
/d1 { setcachedevice } bind def
%%EndProlog
%%Page: 1 1
%%BeginPageSetup
%%PageBoundingBox: 0 -1 387 274
%%EndPageSetup
q 0 -1 387 275 rectclip q
0 273.244 387 -274 re W n
0 g
170.102 169.154 m 170.945 170.99 171.977 173.142 173.223 175.185 c 
173.738 176.033 174.309 176.904 174.91 177.787 c 174.859 177.83 l 
174.238 177.076 173.594 176.252 172.973 175.412 c 171.676 173.666 
170.445 171.713 169.098 169.267 c 167.277 165.959 165.863 162.295 
164.977 158.58 c 166.887 158.26 l 167.449 162.041 168.547 165.775 
170.102 169.154 c h
170.102 169.154 m f
197.246 90.9 m 189.855 86.392 l 190.137 85.865 190.414 85.346 190.688 
84.826 c 191.93 82.455 193.004 80.26 193.977 78.111 c 195.426 74.924 
196.828 71.506 198.352 67.455 c 208.102 71.408 l 204.445 79.029 200.957 
85.291 197.246 90.9 c h
197.246 90.9 m f
166.109 130.256 m 168.117 123.041 171.617 116.248 175.246 109.92 c 
180.355 113.486 l 176.684 118.783 172.777 124.857 170.27 131.564 c h
166.109 130.256 m f
205.281 41.389 m 206.41 34.959 207.078 28.135 207.273 21.053 c 222.059 
21.994 l 221.176 29.744 219.781 37.217 217.906 44.252 c h
205.281 41.389 m f
373.332 215.166 m 373.332 234.299 l 333.332 234.299 l 333.332 263.9 l 
281.066 263.9 l 281.066 251.099 l 222.059 251.099 l 222.059 204.697 l 
208.668 204.697 l 192.133 195.834 182.922 183.471 180.129 176.998 c 
177.871 171.767 176.711 166.635 176.68 161.748 c 176.625 151.912 
183.059 141.267 195.801 130.119 c 195.879 130.053 l 210.801 117.021 
247.934 82.271 266.191 32.724 c 271.066 19.498 273.734 0.002 273.734 
0.002 c 386.668 0.002 l 386.668 215.166 l h
266.801 174.967 m 266.645 174.83 266.492 174.693 266.34 174.556 c 
240.551 174.556 l 240.551 194.556 l 266.801 194.556 l h
266.801 214.556 m 240.551 214.556 l 240.551 234.556 l 266.801 234.556 l 
h
316.535 164.381 m 296.477 164.381 l 296.477 179.666 l 316.535 179.666 l 
h
316.535 188.381 m 296.477 188.381 l 296.477 203.666 l 316.535 203.666 l 
h
316.535 212.381 m 296.477 212.381 l 296.477 227.666 l 316.535 227.666 l 
h
316.535 236.381 m 296.477 236.381 l 296.477 251.666 l 316.535 251.666 l 
h
361.336 131.564 m 341.277 131.564 l 341.277 146.846 l 361.336 146.846 l 
h
361.336 155.564 m 341.277 155.564 l 341.277 170.846 l 361.336 170.846 l 
h
361.336 179.564 m 341.277 179.564 l 341.277 194.846 l 361.336 194.846 l 
h
361.336 203.564 m 341.277 203.564 l 341.277 218.846 l 361.336 218.846 l 
h
361.336 203.564 m f
146.414 110.685 m 143.703 121.178 142.746 131.131 143.379 140.221 c 
144.09 150.424 146.719 159.658 150.98 166.92 c 153.844 171.803 156.535 
175.467 159.453 178.459 c 162.941 182.033 166.418 184.947 170.082 
187.373 c 171.629 188.396 174.242 190.31 177.02 191.986 c 177.02 268.74 
l 114.332 268.74 l 114.332 197.92 l 103.516 197.92 l 103.574 273.244 l 
53.336 273.244 l 53.336 197.92 l 50.242 197.92 l 50.242 224.166 l 0 
224.166 l 0 0.002 l 147.336 0.002 l 147.336 0.002 162.852 17.553 
161.023 49.556 c 159.469 76.834 151.27 91.9 146.414 110.685 c h
34.934 123.584 m 14.879 123.584 l 14.879 138.865 l 34.934 138.865 l h
34.934 147.584 m 14.879 147.584 l 14.879 162.865 l 34.934 162.865 l h
34.934 171.584 m 14.879 171.584 l 14.879 186.865 l 34.934 186.865 l h
34.934 195.584 m 14.879 195.584 l 14.879 210.865 l 34.934 210.865 l h
68.211 259.943 m 88.27 259.943 l 88.27 244.658 l 68.211 244.658 l h
68.211 235.943 m 88.27 235.943 l 88.27 220.658 l 68.211 220.658 l h
68.211 211.943 m 88.27 211.943 l 88.27 197.92 l 68.211 197.92 l h
100.324 121.099 m 74.078 121.099 l 74.078 141.099 l 100.324 141.099 l h
100.324 161.099 m 74.078 161.099 l 74.078 181.099 l 100.324 181.099 l h
132.551 247.357 m 158.801 247.357 l 158.801 227.357 l 132.551 227.357 l 
h
132.551 207.357 m 158.801 207.357 l 158.801 187.767 l 158.645 187.631 
158.492 187.494 158.34 187.357 c 132.551 187.357 l h
132.551 207.357 m f
Q Q
showpage
%%Trailer
count op_count sub {pop} repeat
countdictstack dict_count sub {end} repeat
cairo_eps_state restore
%%EOF
