%!PS-Adobe-3.0 EPSF-3.0
%%Creator: cairo 1.10.2 (http://cairographics.org)
%%CreationDate: Wed Jul 23 07:24:47 2014
%%Pages: 1
%%BoundingBox: 0 -1 772 661
%%DocumentData: Clean7Bit
%%LanguageLevel: 2
%%EndComments
%%BeginProlog
/cairo_eps_state save def
/dict_count countdictstack def
/op_count count 1 sub def
userdict begin
/q { gsave } bind def
/Q { grestore } bind def
/cm { 6 array astore concat } bind def
/w { setlinewidth } bind def
/J { setlinecap } bind def
/j { setlinejoin } bind def
/M { setmiterlimit } bind def
/d { setdash } bind def
/m { moveto } bind def
/l { lineto } bind def
/c { curveto } bind def
/h { closepath } bind def
/re { exch dup neg 3 1 roll 5 3 roll moveto 0 rlineto
      0 exch rlineto 0 rlineto closepath } bind def
/S { stroke } bind def
/f { fill } bind def
/f* { eofill } bind def
/n { newpath } bind def
/W { clip } bind def
/W* { eoclip } bind def
/BT { } bind def
/ET { } bind def
/pdfmark where { pop globaldict /?pdfmark /exec load put }
    { globaldict begin /?pdfmark /pop load def /pdfmark
    /cleartomark load def end } ifelse
/BDC { mark 3 1 roll /BDC pdfmark } bind def
/EMC { mark /EMC pdfmark } bind def
/cairo_store_point { /cairo_point_y exch def /cairo_point_x exch def } def
/Tj { show currentpoint cairo_store_point } bind def
/TJ {
  {
    dup
    type /stringtype eq
    { show } { -0.001 mul 0 cairo_font_matrix dtransform rmoveto } ifelse
  } forall
  currentpoint cairo_store_point
} bind def
/cairo_selectfont { cairo_font_matrix aload pop pop pop 0 0 6 array astore
    cairo_font exch selectfont cairo_point_x cairo_point_y moveto } bind def
/Tf { pop /cairo_font exch def /cairo_font_matrix where
      { pop cairo_selectfont } if } bind def
/Td { matrix translate cairo_font_matrix matrix concatmatrix dup
      /cairo_font_matrix exch def dup 4 get exch 5 get cairo_store_point
      /cairo_font where { pop cairo_selectfont } if } bind def
/Tm { 2 copy 8 2 roll 6 array astore /cairo_font_matrix exch def
      cairo_store_point /cairo_font where { pop cairo_selectfont } if } bind def
/g { setgray } bind def
/rg { setrgbcolor } bind def
/d1 { setcachedevice } bind def
%%EndProlog
%%Page: 1 1
%%BeginPageSetup
%%PageBoundingBox: 0 -1 772 661
%%EndPageSetup
q 0 -1 772 662 rectclip q
0 660.879 772 -661 re W n
0 g
656.719 75.199 m 656.719 97.758 620.16 118 562.48 131.68 c 562.48 
208.559 l 562.48 240.398 536.719 266.16 504.879 266.16 c 439.68 266.16 
l 428.559 266.16 420.32 276.719 423.281 287.52 c 428.32 305.84 442.719 
316.398 455.84 328.801 c 468.238 340.559 475.359 354.32 483.121 369.359 
c 486.879 376.641 492.32 380 497.68 385.758 c 503.52 392.078 508.719 
399.039 512.879 406.559 c 521.52 422.078 526.16 439.758 526.16 457.52 c 
526.16 477.117 520.801 495.438 511.441 511.117 c 511.52 520.957 510.48 
541.277 502.32 562.879 c 493.199 587.039 473.039 617.438 429.121 
630.238 c 410.16 649.199 383.922 660.879 355.121 660.879 c 297.281 
660.879 250.16 613.84 250.16 555.918 c 250.16 548.719 250.879 541.758 
252.238 534.957 c 246.879 519.199 244.398 502.559 244.961 485.117 c 
245.84 456.481 254.801 428.641 267.762 403.277 c 273.922 391.277 
276.078 378.559 281.441 366.078 c 287.922 350.957 297.281 337.039 
309.602 326.078 c 322 315.117 335.039 304.16 339.68 287.438 c 342.641 
276.719 334.48 266.078 323.281 266.078 c 266.078 266.078 l 234.238 
266.078 208.48 240.32 208.48 208.481 c 208.48 131.598 l 150.801 117.918 
114.238 97.68 114.238 75.117 c 114.238 51.52 154.078 30.559 216.16 
16.879 c 218.879 16.32 220.078 20.078 217.52 21.199 c 182.961 35.598 
162 54.481 162 75.199 c 162 94 179.359 111.359 208.48 125.117 c 208.48 
75.199 l 208.48 53.039 287.68 35.039 385.441 35.039 c 483.199 35.039 
562.398 53.039 562.398 75.199 c 562.398 125.199 l 591.52 111.359 
608.879 94.078 608.879 75.277 c 608.879 54.559 587.922 35.68 553.359 
21.277 c 550.801 20.238 552 16.398 554.719 16.957 c 616.961 30.641 
656.719 51.598 656.719 75.199 c h
355.121 640.879 m 366 640.879 376.48 638.801 386.078 635.039 c 364.48 
633.598 341.84 626.801 321.602 615.598 c 301.602 604.481 284.641 589.68 
271.762 572.16 c 279.359 611.277 313.84 640.879 355.121 640.879 c h
265.359 501.598 m 265.922 507.359 266.879 512.801 268.078 517.918 c 
269.441 523.598 271.121 528.879 273.121 533.758 c 275.441 539.52 278 
544.801 280.801 549.52 c 292.32 569.359 309.84 586.16 331.281 598.078 c 
351.281 609.199 373.84 615.277 394.641 615.277 c 401.199 615.277 
407.602 614.641 413.602 613.438 c 415.281 613.117 416.961 612.719 
418.559 612.32 c 424.48 610.879 430.078 609.039 435.281 606.801 c 
441.039 604.398 446.32 601.52 451.199 598.16 c 465.84 588.16 476.641 
574.078 483.602 556 c 486 549.68 487.68 543.438 488.879 537.598 c 
490.078 531.758 490.801 526.32 491.121 521.68 c 491.281 519.438 491.441 
517.438 491.441 515.598 c 384 515.598 l 374.16 515.598 365.281 514.641 
357.121 512.879 c 351.359 511.68 346.078 510.078 341.121 508.16 c 
335.52 506 330.398 503.438 325.68 500.559 c 318.559 496.238 312.398 
491.117 307.121 485.758 c 306.32 484.957 305.602 484.16 304.801 483.359 
c 303.281 481.68 301.762 479.918 300.398 478.238 c 298.32 475.598 
296.32 472.879 294.559 470.16 c 291.441 465.359 288.719 460.559 286.48 
455.84 c 282.32 447.039 279.359 438.32 277.281 430.398 c 276.32 432.801 
l 266 459.359 263.52 482.16 265.359 501.598 c h
395.121 344.879 m 368.719 344.879 l 366.078 344.879 364.16 346.641 
364.961 348.398 c 366.801 352.559 370.238 355.758 376.398 356.719 c 
377.121 356.801 377.922 356.719 378.641 356.398 c 380.32 355.598 l 
381.359 355.117 382.641 355.117 383.68 355.598 c 385.359 356.398 l 
386.078 356.719 386.801 356.879 387.602 356.719 c 393.762 355.84 
397.199 352.559 399.039 348.398 c 399.68 346.641 397.84 344.879 395.121 
344.879 c h
398.879 331.039 m 396.641 326.078 389.922 322.481 381.84 322.481 c 
373.762 322.481 367.039 326.078 364.801 331.039 c 364 332.801 365.922 
334.559 368.559 334.559 c 394.961 334.559 l 397.84 334.481 399.68 
332.719 398.879 331.039 c h
443.281 495.84 m 496.961 495.84 l 502.801 484.32 506.078 471.277 
506.078 457.52 c 506.078 438.641 499.922 421.199 489.441 407.039 c 
489.441 407.117 l 489.52 443.84 471.281 476.238 443.281 495.84 c h
771.039 74.398 m 771.039 44.641 714.559 18 625.602 0.16 c 619.84 -0.961 
616.719 4.879 622 6.957 c 669.68 25.359 713.602 48.879 713.602 74.398 c 
713.602 99.918 669.762 123.438 622 141.84 c 616.719 143.84 619.84 
149.758 625.602 148.641 c 714.559 130.801 771.039 104.16 771.039 74.398 
c h
145.441 0.16 m 56.48 18 0 44.641 0 74.398 c 0 104.16 56.48 130.801 
145.441 148.641 c 151.199 149.758 154.32 143.918 149.039 141.84 c 
101.359 123.438 57.52 100 57.52 74.398 c 57.52 48.801 101.359 25.359 
149.121 6.957 c 154.398 4.879 151.199 -1.043 145.441 0.16 c h
636.078 265.199 m 636.078 265.199 635.199 265.84 633.68 267.277 c 
623.039 277.438 615.762 291.598 612.641 305.84 c 612.238 307.52 612 
309.199 611.68 310.879 c 607.441 339.359 619.762 367.68 642.078 385.438 
c 652.801 393.918 664.559 400.16 673.121 411.117 c 688.078 430.16 
691.602 457.68 692.48 481.199 c 692.559 482.641 692.559 483.84 692.641 
484.801 c 692.719 486.801 692.719 487.918 692.719 487.918 c 692.719 
487.918 693.602 487.199 695.039 485.758 c 695.762 485.039 696.641 
484.078 697.602 482.957 c 711.039 467.758 718.16 446.481 717.68 426.32 
c 717.359 412.641 713.602 399.117 706.801 387.277 c 700.238 375.68 
691.441 366.957 680.641 359.117 c 672.16 352.957 663.281 347.199 
656.078 339.598 c 642.961 325.758 638.32 307.598 636.641 289.039 c 
636.238 284.879 636 280.801 635.922 276.641 c 636 275.117 636.078 
265.199 636.078 265.199 c h
91.52 265.199 m 91.52 265.199 90.641 265.84 89.121 267.277 c 78.48 
277.438 71.199 291.598 68.078 305.84 c 67.68 307.52 67.441 309.199 
67.121 310.879 c 62.879 339.359 75.199 367.68 97.52 385.438 c 108.238 
393.918 120 400.16 128.559 411.117 c 143.52 430.16 147.039 457.68 
147.922 481.199 c 148 482.641 148 483.84 148.078 484.801 c 148.16 
486.801 148.16 487.918 148.16 487.918 c 148.16 487.918 149.039 487.199 
150.48 485.758 c 151.199 485.039 152.078 484.078 153.039 482.957 c 
166.48 467.758 173.602 446.481 173.121 426.32 c 172.801 412.641 169.039 
399.117 162.238 387.277 c 155.68 375.68 146.879 366.957 136.078 359.117 
c 127.602 352.957 118.719 347.199 111.52 339.598 c 98.398 325.758 
93.762 307.598 92.078 289.039 c 91.68 284.879 91.441 280.801 91.359 
276.641 c 91.52 275.117 91.52 265.199 91.52 265.199 c h
91.52 265.199 m f
91.52 276.719 m 91.602 280.879 91.84 285.039 92.238 289.117 c 93.922 
307.598 98.559 325.758 111.68 339.68 c 118.879 347.277 127.762 353.039 
136.238 359.199 c 147.039 366.957 155.84 375.68 162.398 387.359 c 
169.121 399.277 172.961 412.801 173.281 426.398 c 173.762 446.559 
166.559 467.84 153.199 483.039 c 152.238 484.16 151.359 485.039 150.641 
485.84 c 149.199 487.277 148.32 488 148.32 488 c 148.32 488 148.32 
486.957 148.238 484.879 c 148.238 483.918 148.16 482.719 148.078 
481.277 c 147.199 457.758 143.762 430.238 128.719 411.199 c 120.16 
400.32 108.32 394 97.68 385.52 c 75.281 367.758 62.961 339.438 67.281 
310.957 c 67.52 309.277 67.84 307.598 68.238 305.918 c 71.359 291.68 
78.641 277.438 89.281 267.359 c 90.719 265.918 91.68 265.277 91.68 
265.277 c 91.52 265.199 91.52 275.117 91.52 276.719 c h
91.52 276.719 m f
Q Q
showpage
%%Trailer
count op_count sub {pop} repeat
countdictstack dict_count sub {end} repeat
cairo_eps_state restore
%%EOF
