%!PS-Adobe-3.0 EPSF-3.0
%%Creator: cairo 1.10.2 (http://cairographics.org)
%%CreationDate: Tue May 19 08:13:05 2015
%%Pages: 1
%%BoundingBox: 0 -1 307 378
%%DocumentData: Clean7Bit
%%LanguageLevel: 2
%%EndComments
%%BeginProlog
/cairo_eps_state save def
/dict_count countdictstack def
/op_count count 1 sub def
userdict begin
/q { gsave } bind def
/Q { grestore } bind def
/cm { 6 array astore concat } bind def
/w { setlinewidth } bind def
/J { setlinecap } bind def
/j { setlinejoin } bind def
/M { setmiterlimit } bind def
/d { setdash } bind def
/m { moveto } bind def
/l { lineto } bind def
/c { curveto } bind def
/h { closepath } bind def
/re { exch dup neg 3 1 roll 5 3 roll moveto 0 rlineto
      0 exch rlineto 0 rlineto closepath } bind def
/S { stroke } bind def
/f { fill } bind def
/f* { eofill } bind def
/n { newpath } bind def
/W { clip } bind def
/W* { eoclip } bind def
/BT { } bind def
/ET { } bind def
/pdfmark where { pop globaldict /?pdfmark /exec load put }
    { globaldict begin /?pdfmark /pop load def /pdfmark
    /cleartomark load def end } ifelse
/BDC { mark 3 1 roll /BDC pdfmark } bind def
/EMC { mark /EMC pdfmark } bind def
/cairo_store_point { /cairo_point_y exch def /cairo_point_x exch def } def
/Tj { show currentpoint cairo_store_point } bind def
/TJ {
  {
    dup
    type /stringtype eq
    { show } { -0.001 mul 0 cairo_font_matrix dtransform rmoveto } ifelse
  } forall
  currentpoint cairo_store_point
} bind def
/cairo_selectfont { cairo_font_matrix aload pop pop pop 0 0 6 array astore
    cairo_font exch selectfont cairo_point_x cairo_point_y moveto } bind def
/Tf { pop /cairo_font exch def /cairo_font_matrix where
      { pop cairo_selectfont } if } bind def
/Td { matrix translate cairo_font_matrix matrix concatmatrix dup
      /cairo_font_matrix exch def dup 4 get exch 5 get cairo_store_point
      /cairo_font where { pop cairo_selectfont } if } bind def
/Tm { 2 copy 8 2 roll 6 array astore /cairo_font_matrix exch def
      cairo_store_point /cairo_font where { pop cairo_selectfont } if } bind def
/g { setgray } bind def
/rg { setrgbcolor } bind def
/d1 { setcachedevice } bind def
%%EndProlog
%%Page: 1 1
%%BeginPageSetup
%%PageBoundingBox: 0 -1 307 378
%%EndPageSetup
q 0 -1 307 379 rectclip q
0 377.761 307 -378 re W n
0 g
225.203 343.042 m 185.641 343.042 152.688 314.749 145.461 277.296 c 
172.355 277.296 l 174.75 285.456 178.992 292.828 184.586 298.945 c 
184.57 298.902 184.559 298.859 184.547 298.816 c 185.578 299.921 
186.641 301.003 187.75 302.023 c 201.07 271.296 l 107.934 271.296 l 
88.07 367.691 l 87.219 371.839 84.348 375.277 80.418 376.851 c 76.5 
378.425 72.039 377.937 68.562 375.546 c 5.473 332.171 l -0.27 328.222 
-1.727 320.367 2.219 314.624 c 6.188 308.882 14.035 307.421 19.766 
311.37 c 67.195 343.976 l 82.168 271.296 l 30.562 271.296 l 28.797 
271.296 27.121 270.57 25.902 269.288 c 24.695 267.999 24.078 266.273 
24.176 264.519 c 26.754 220.792 54.074 183.785 92.309 167.113 c 93.086 
147.175 106.641 130.687 125.051 125.351 c 125.051 41.488 l 99.887 
39.351 81.059 31.023 81.059 21.031 c 81.059 9.413 106.406 -0.001 
137.672 -0.001 c 168.945 -0.001 194.293 9.413 194.293 21.031 c 194.293 
31.027 175.465 39.351 150.289 41.488 c 150.289 125.351 l 168.699 
130.687 182.254 147.187 183.043 167.128 c 217.461 182.148 242.957 
213.652 249.574 251.71 c 249.621 251.691 l 280.188 264.929 l 280.246 
263.898 280.281 262.863 280.281 261.82 c 280.281 236.417 262.988 
214.988 239.562 208.656 c 233.203 198.296 225.34 189.019 216.242 
181.097 c 219.184 180.773 222.176 180.601 225.203 180.601 c 270.062 
180.601 306.422 216.964 306.422 261.82 c 306.422 306.679 270.062 
343.042 225.203 343.042 c h
203.832 312.535 m 213.336 316.55 223.91 317.847 234.438 316.109 c 
234.742 316.054 235.047 315.999 235.348 315.945 c 235.738 315.874 
236.125 315.804 236.516 315.722 c 236.605 315.703 236.695 315.679 
236.789 315.66 c 220.406 274.242 l h
238.102 267.324 m 238.086 267.335 238.062 267.347 238.039 267.359 c 
254.332 308.531 l 263.77 302.624 271.297 293.949 275.762 283.64 c h
238.102 267.324 m f
Q Q
showpage
%%Trailer
count op_count sub {pop} repeat
countdictstack dict_count sub {end} repeat
cairo_eps_state restore
%%EOF
