%!PS-Adobe-3.0 EPSF-3.0
%%Creator: cairo 1.10.2 (http://cairographics.org)
%%CreationDate: Thu Jun 18 08:09:57 2015
%%Pages: 1
%%BoundingBox: 0 -1 154 139
%%DocumentData: Clean7Bit
%%LanguageLevel: 2
%%EndComments
%%BeginProlog
/cairo_eps_state save def
/dict_count countdictstack def
/op_count count 1 sub def
userdict begin
/q { gsave } bind def
/Q { grestore } bind def
/cm { 6 array astore concat } bind def
/w { setlinewidth } bind def
/J { setlinecap } bind def
/j { setlinejoin } bind def
/M { setmiterlimit } bind def
/d { setdash } bind def
/m { moveto } bind def
/l { lineto } bind def
/c { curveto } bind def
/h { closepath } bind def
/re { exch dup neg 3 1 roll 5 3 roll moveto 0 rlineto
      0 exch rlineto 0 rlineto closepath } bind def
/S { stroke } bind def
/f { fill } bind def
/f* { eofill } bind def
/n { newpath } bind def
/W { clip } bind def
/W* { eoclip } bind def
/BT { } bind def
/ET { } bind def
/pdfmark where { pop globaldict /?pdfmark /exec load put }
    { globaldict begin /?pdfmark /pop load def /pdfmark
    /cleartomark load def end } ifelse
/BDC { mark 3 1 roll /BDC pdfmark } bind def
/EMC { mark /EMC pdfmark } bind def
/cairo_store_point { /cairo_point_y exch def /cairo_point_x exch def } def
/Tj { show currentpoint cairo_store_point } bind def
/TJ {
  {
    dup
    type /stringtype eq
    { show } { -0.001 mul 0 cairo_font_matrix dtransform rmoveto } ifelse
  } forall
  currentpoint cairo_store_point
} bind def
/cairo_selectfont { cairo_font_matrix aload pop pop pop 0 0 6 array astore
    cairo_font exch selectfont cairo_point_x cairo_point_y moveto } bind def
/Tf { pop /cairo_font exch def /cairo_font_matrix where
      { pop cairo_selectfont } if } bind def
/Td { matrix translate cairo_font_matrix matrix concatmatrix dup
      /cairo_font_matrix exch def dup 4 get exch 5 get cairo_store_point
      /cairo_font where { pop cairo_selectfont } if } bind def
/Tm { 2 copy 8 2 roll 6 array astore /cairo_font_matrix exch def
      cairo_store_point /cairo_font where { pop cairo_selectfont } if } bind def
/g { setgray } bind def
/rg { setrgbcolor } bind def
/d1 { setcachedevice } bind def
%%EndProlog
%%Page: 1 1
%%BeginPageSetup
%%PageBoundingBox: 0 -1 154 139
%%EndPageSetup
q 0 -1 154 140 rectclip q
0 138.471 154 -139 re W n
0 g
46.66 -0.001 m 40.926 -0.001 35.191 2.182 30.828 6.549 c 29.875 7.502 l 
22.391 14.983 10.215 14.983 2.73 7.502 c 2.105 6.877 1.094 6.877 0.469 
7.502 c -0.156 8.127 -0.156 9.139 0.469 9.764 c 9.199 18.495 23.406 
18.495 32.137 9.764 c 33.09 8.811 l 40.57 1.331 52.746 1.327 60.23 
8.811 c 61.301 9.881 l 65.531 14.112 71.152 16.44 77.137 16.44 c 83.117 
16.44 88.742 14.112 92.969 9.881 c 93.621 9.229 l 97.25 5.604 102.07 
3.608 107.195 3.608 c 112.32 3.608 117.141 5.604 120.766 9.229 c 
121.062 9.526 l 129.793 18.256 144 18.256 152.73 9.526 c 153.355 8.901 
153.355 7.885 152.73 7.264 c 152.105 6.639 151.094 6.639 150.469 7.264 
c 142.984 14.745 130.809 14.745 123.324 7.264 c 123.027 6.967 l 118.801 
2.737 113.176 0.405 107.195 0.405 c 101.215 0.405 95.59 2.737 91.363 
6.967 c 90.707 7.62 l 87.082 11.245 82.262 13.241 77.137 13.241 c 
72.008 13.241 67.188 11.245 63.566 7.62 c 62.492 6.549 l 58.129 2.182 
52.395 0.002 46.66 -0.001 c h
46.66 23.749 m 40.68 23.749 35.055 26.077 30.828 30.307 c 29.875 31.26 
l 22.391 38.741 10.215 38.741 2.73 31.26 c 2.105 30.635 1.094 30.635 
0.469 31.26 c -0.156 31.885 -0.156 32.897 0.469 33.522 c 9.199 42.252 
23.406 42.252 32.137 33.522 c 33.09 32.569 l 40.57 25.088 52.746 25.084 
60.23 32.569 c 61.301 33.639 l 65.531 37.87 71.152 40.198 77.137 40.198 
c 83.117 40.198 88.742 37.87 92.969 33.639 c 93.621 32.987 l 97.25 
29.362 102.07 27.366 107.195 27.366 c 112.32 27.366 117.141 29.362 
120.766 32.987 c 121.062 33.284 l 129.793 42.014 144 42.014 152.73 
33.284 c 153.355 32.659 153.355 31.647 152.73 31.022 c 152.105 30.397 
151.094 30.397 150.469 31.022 c 142.984 38.502 130.809 38.502 123.324 
31.022 c 123.027 30.725 l 118.801 26.495 113.176 24.167 107.195 24.167 
c 101.215 24.167 95.59 26.495 91.363 30.725 c 90.707 31.377 l 87.082 
35.002 82.262 36.999 77.137 36.999 c 72.008 36.999 67.188 35.002 63.566 
31.377 c 62.492 30.307 l 58.266 26.077 52.641 23.749 46.66 23.749 c h
46.66 47.518 m 40.926 47.518 35.191 49.702 30.828 54.065 c 29.875 
55.018 l 22.391 62.502 10.215 62.502 2.73 55.018 c 2.105 54.393 1.094 
54.393 0.469 55.018 c -0.156 55.643 -0.156 56.655 0.469 57.28 c 9.199 
66.01 23.406 66.01 32.137 57.28 c 33.09 56.331 l 36.715 52.706 41.535 
50.709 46.66 50.709 c 51.785 50.709 56.605 52.706 60.23 56.331 c 61.301 
57.401 l 65.531 61.631 71.152 63.959 77.137 63.959 c 83.117 63.959 
88.742 61.627 92.969 57.401 c 93.621 56.745 l 97.25 53.12 102.07 51.124 
107.195 51.124 c 112.32 51.124 117.141 53.12 120.766 56.745 c 121.062 
57.042 l 125.293 61.272 130.914 63.6 136.898 63.6 c 142.879 63.6 148.5 
61.272 152.73 57.042 c 153.355 56.417 153.355 55.405 152.73 54.78 c 
152.105 54.155 151.094 54.155 150.469 54.78 c 146.844 58.405 142.023 
60.401 136.898 60.401 c 131.77 60.401 126.949 58.405 123.324 54.78 c 
123.027 54.483 l 118.801 50.252 113.176 47.924 107.195 47.924 c 101.215 
47.924 95.59 50.252 91.363 54.483 c 90.707 55.135 l 87.082 58.764 
82.262 60.76 77.137 60.76 c 72.008 60.76 67.188 58.76 63.566 55.135 c 
62.492 54.065 l 58.129 49.702 52.395 47.518 46.66 47.518 c h
120.801 73.545 m 119.918 73.545 119.203 74.26 119.203 75.143 c 119.203 
83.315 l 119.203 84.202 119.918 84.917 120.801 84.917 c 121.684 84.917 
122.402 84.202 122.402 83.315 c 122.402 75.147 l 122.402 74.26 121.684 
73.545 120.801 73.545 c h
142.625 82.584 m 142.215 82.584 141.805 82.741 141.496 83.053 c 135.715 
88.831 l 135.09 89.456 135.09 90.471 135.715 91.096 c 136.34 91.717 
137.355 91.717 137.977 91.096 c 143.758 85.315 l 144.383 84.69 144.383 
83.678 143.758 83.053 c 143.445 82.741 143.035 82.584 142.625 82.584 c 
h
98.98 82.584 m 98.57 82.584 98.16 82.741 97.848 83.053 c 97.223 83.678 
97.223 84.69 97.848 85.315 c 103.625 91.096 l 104.25 91.717 105.266 
91.717 105.887 91.096 c 106.512 90.471 106.512 89.456 105.887 88.831 c 
100.109 83.053 l 99.797 82.741 99.387 82.584 98.98 82.584 c h
120.801 88.592 m 111.199 88.592 103.383 96.405 103.383 106.006 c 
103.383 115.612 111.199 123.424 120.801 123.424 c 130.406 123.424 
138.219 115.612 138.219 106.006 c 138.219 96.405 130.406 88.592 120.801 
88.592 c h
120.801 120.225 m 112.965 120.225 106.586 113.846 106.586 106.006 c 
106.586 98.17 112.965 91.792 120.801 91.792 c 128.641 91.792 135.02 
98.17 135.02 106.006 c 135.02 113.846 128.641 120.225 120.801 120.225 c 
h
151.664 104.409 m 143.496 104.409 l 142.609 104.409 141.895 105.124 
141.895 106.006 c 141.895 106.893 142.609 107.608 143.496 107.608 c 
151.664 107.608 l 152.547 107.608 153.266 106.893 153.266 106.006 c 
153.266 105.124 152.547 104.409 151.664 104.409 c h
98.109 104.409 m 89.941 104.409 l 89.055 104.409 88.34 105.124 88.34 
106.006 c 88.34 106.893 89.055 107.608 89.941 107.608 c 98.109 107.608 
l 98.996 107.608 99.711 106.893 99.711 106.006 c 99.711 105.124 98.996 
104.409 98.109 104.409 c h
136.848 120.452 m 136.438 120.452 136.027 120.608 135.715 120.924 c 
135.094 121.545 135.094 122.561 135.715 123.186 c 141.496 128.963 l 
142.117 129.588 143.133 129.588 143.758 128.963 c 144.383 128.338 
144.383 127.327 143.758 126.702 c 137.98 120.924 l 137.668 120.608 
137.258 120.452 136.848 120.452 c h
104.758 120.452 m 104.348 120.452 103.938 120.608 103.625 120.924 c 
97.848 126.702 l 97.223 127.327 97.223 128.338 97.848 128.963 c 98.473 
129.588 99.484 129.588 100.109 128.963 c 105.887 123.186 l 106.512 
122.561 106.512 121.545 105.887 120.924 c 105.574 120.608 105.168 
120.452 104.758 120.452 c h
120.801 127.1 m 119.918 127.1 119.203 127.815 119.203 128.698 c 119.203 
136.87 l 119.203 137.752 119.918 138.471 120.801 138.471 c 121.684 
138.471 122.402 137.752 122.402 136.87 c 122.402 128.702 l 122.402 
127.815 121.684 127.1 120.801 127.1 c h
120.801 127.1 m f
Q Q
showpage
%%Trailer
count op_count sub {pop} repeat
countdictstack dict_count sub {end} repeat
cairo_eps_state restore
%%EOF
