%!PS-Adobe-3.0 EPSF-3.0
%%Creator: cairo 1.10.2 (http://cairographics.org)
%%CreationDate: Fri Jul  4 09:51:21 2014
%%Pages: 1
%%BoundingBox: 0 -1 23 25
%%DocumentData: Clean7Bit
%%LanguageLevel: 2
%%EndComments
%%BeginProlog
/cairo_eps_state save def
/dict_count countdictstack def
/op_count count 1 sub def
userdict begin
/q { gsave } bind def
/Q { grestore } bind def
/cm { 6 array astore concat } bind def
/w { setlinewidth } bind def
/J { setlinecap } bind def
/j { setlinejoin } bind def
/M { setmiterlimit } bind def
/d { setdash } bind def
/m { moveto } bind def
/l { lineto } bind def
/c { curveto } bind def
/h { closepath } bind def
/re { exch dup neg 3 1 roll 5 3 roll moveto 0 rlineto
      0 exch rlineto 0 rlineto closepath } bind def
/S { stroke } bind def
/f { fill } bind def
/f* { eofill } bind def
/n { newpath } bind def
/W { clip } bind def
/W* { eoclip } bind def
/BT { } bind def
/ET { } bind def
/pdfmark where { pop globaldict /?pdfmark /exec load put }
    { globaldict begin /?pdfmark /pop load def /pdfmark
    /cleartomark load def end } ifelse
/BDC { mark 3 1 roll /BDC pdfmark } bind def
/EMC { mark /EMC pdfmark } bind def
/cairo_store_point { /cairo_point_y exch def /cairo_point_x exch def } def
/Tj { show currentpoint cairo_store_point } bind def
/TJ {
  {
    dup
    type /stringtype eq
    { show } { -0.001 mul 0 cairo_font_matrix dtransform rmoveto } ifelse
  } forall
  currentpoint cairo_store_point
} bind def
/cairo_selectfont { cairo_font_matrix aload pop pop pop 0 0 6 array astore
    cairo_font exch selectfont cairo_point_x cairo_point_y moveto } bind def
/Tf { pop /cairo_font exch def /cairo_font_matrix where
      { pop cairo_selectfont } if } bind def
/Td { matrix translate cairo_font_matrix matrix concatmatrix dup
      /cairo_font_matrix exch def dup 4 get exch 5 get cairo_store_point
      /cairo_font where { pop cairo_selectfont } if } bind def
/Tm { 2 copy 8 2 roll 6 array astore /cairo_font_matrix exch def
      cairo_store_point /cairo_font where { pop cairo_selectfont } if } bind def
/g { setgray } bind def
/rg { setrgbcolor } bind def
/d1 { setcachedevice } bind def
%%EndProlog
%%Page: 1 1
%%BeginPageSetup
%%PageBoundingBox: 0 -1 23 25
%%EndPageSetup
q 0 -1 23 26 rectclip q
0 24.367 23 -25 re W n
0 g
22.16 5.132 m 21.918 6.011 21.059 6.57 20.156 6.429 c 13.262 5.37 l 
13.262 15.054 l 13.812 15.054 l 15.074 8.749 l 15.152 8.37 15.426 8.062 
15.789 7.941 c 20.09 6.507 l 20.207 6.468 20.316 6.453 20.43 6.453 c 
20.883 6.453 21.301 6.734 21.453 7.187 c 21.641 7.753 21.336 8.359 
20.773 8.546 c 17.062 9.785 l 15.75 16.339 l 15.648 16.843 15.207 
17.206 14.695 17.206 c 12.41 17.206 l 12.051 17.48 11.602 17.652 11.113 
17.652 c 10.621 17.652 10.172 17.48 9.812 17.206 c 7.527 17.206 l 7.016 
17.206 6.574 16.843 6.477 16.339 c 5.16 9.785 l 1.453 8.546 l 0.891 
8.359 0.582 7.753 0.773 7.187 c 0.961 6.624 1.559 6.328 2.133 6.507 c 
6.434 7.941 l 6.801 8.062 7.074 8.37 7.148 8.749 c 8.41 15.054 l 8.961 
15.054 l 8.961 5.37 l 2.066 6.429 l 1.164 6.57 0.305 6.011 0.062 5.132 
c -0.176 4.253 0.281 3.335 1.129 2.995 c 8.297 0.128 l 9.211 -0.239 
10.258 0.206 10.625 1.128 c 10.672 1.242 10.703 1.359 10.727 1.472 c 
10.84 1.456 l 11.023 1.425 11.203 1.425 11.387 1.456 c 11.5 1.472 l 
11.52 1.359 11.555 1.242 11.602 1.128 c 11.879 0.425 12.551 -0.001 
13.266 -0.001 c 13.484 -0.001 13.711 0.042 13.93 0.128 c 21.098 2.995 l 
21.941 3.335 22.398 4.253 22.16 5.132 c h
22.16 5.132 m f
11.109 17.82 m 12.922 17.82 14.387 19.281 14.387 21.093 c 14.387 22.902 
12.922 24.367 11.109 24.367 c 9.301 24.367 7.836 22.902 7.836 21.093 c 
7.836 19.281 9.301 17.82 11.109 17.82 c h
11.109 17.82 m f
Q Q
showpage
%%Trailer
count op_count sub {pop} repeat
countdictstack dict_count sub {end} repeat
cairo_eps_state restore
%%EOF
