%!PS-Adobe-3.0 EPSF-3.0
%%Creator: cairo 1.10.2 (http://cairographics.org)
%%CreationDate: Thu Jun 18 08:10:48 2015
%%Pages: 1
%%BoundingBox: 0 -1 375 388
%%DocumentData: Clean7Bit
%%LanguageLevel: 2
%%EndComments
%%BeginProlog
/cairo_eps_state save def
/dict_count countdictstack def
/op_count count 1 sub def
userdict begin
/q { gsave } bind def
/Q { grestore } bind def
/cm { 6 array astore concat } bind def
/w { setlinewidth } bind def
/J { setlinecap } bind def
/j { setlinejoin } bind def
/M { setmiterlimit } bind def
/d { setdash } bind def
/m { moveto } bind def
/l { lineto } bind def
/c { curveto } bind def
/h { closepath } bind def
/re { exch dup neg 3 1 roll 5 3 roll moveto 0 rlineto
      0 exch rlineto 0 rlineto closepath } bind def
/S { stroke } bind def
/f { fill } bind def
/f* { eofill } bind def
/n { newpath } bind def
/W { clip } bind def
/W* { eoclip } bind def
/BT { } bind def
/ET { } bind def
/pdfmark where { pop globaldict /?pdfmark /exec load put }
    { globaldict begin /?pdfmark /pop load def /pdfmark
    /cleartomark load def end } ifelse
/BDC { mark 3 1 roll /BDC pdfmark } bind def
/EMC { mark /EMC pdfmark } bind def
/cairo_store_point { /cairo_point_y exch def /cairo_point_x exch def } def
/Tj { show currentpoint cairo_store_point } bind def
/TJ {
  {
    dup
    type /stringtype eq
    { show } { -0.001 mul 0 cairo_font_matrix dtransform rmoveto } ifelse
  } forall
  currentpoint cairo_store_point
} bind def
/cairo_selectfont { cairo_font_matrix aload pop pop pop 0 0 6 array astore
    cairo_font exch selectfont cairo_point_x cairo_point_y moveto } bind def
/Tf { pop /cairo_font exch def /cairo_font_matrix where
      { pop cairo_selectfont } if } bind def
/Td { matrix translate cairo_font_matrix matrix concatmatrix dup
      /cairo_font_matrix exch def dup 4 get exch 5 get cairo_store_point
      /cairo_font where { pop cairo_selectfont } if } bind def
/Tm { 2 copy 8 2 roll 6 array astore /cairo_font_matrix exch def
      cairo_store_point /cairo_font where { pop cairo_selectfont } if } bind def
/g { setgray } bind def
/rg { setrgbcolor } bind def
/d1 { setcachedevice } bind def
%%EndProlog
%%Page: 1 1
%%BeginPageSetup
%%PageBoundingBox: 0 -1 375 388
%%EndPageSetup
q 0 -1 375 389 rectclip q
0 387.29 375 -388 re W n
0 g
372.363 114.68 m 318.727 180.344 l 342.488 180.344 l 345.891 180.344 
348.988 182.282 350.469 185.34 c 351.953 188.399 351.551 192.032 
349.449 194.708 c 292.133 267.243 l 309.219 267.243 l 312.555 267.243 
315.613 269.114 317.125 272.098 c 318.637 275.079 318.336 278.649 
316.359 281.348 c 241.309 383.669 l 239.641 385.938 236.988 387.29 
234.168 387.29 c 231.344 387.29 228.691 385.938 227.023 383.672 c 
151.965 281.352 l 149.992 278.649 149.695 275.079 151.199 272.098 c 
152.711 269.114 155.77 267.243 159.109 267.243 c 176.207 267.243 l 
162.977 250.497 l 178.602 229.196 l 180.57 226.508 181.668 223.461 
182.273 220.325 c 183.168 215.661 182.715 210.782 180.477 206.344 c 
179.043 203.516 177.062 201.094 174.695 199.184 c 203.781 162.387 l 
208.93 155.836 209.91 146.762 206.293 139.266 c 205.438 137.508 204.277 
135.965 203.016 134.524 c 201.379 132.653 199.531 130.997 197.383 
129.786 c 221.305 100.497 l 226.633 93.969 227.742 84.844 224.129 
77.235 c 220.516 69.629 212.746 64.719 204.336 64.719 c 196.324 64.719 
l 196.324 8.856 l 196.324 3.961 200.297 0.001 205.191 0.001 c 263.141 
0.001 l 268.035 0.001 272.004 3.961 272.004 8.856 c 272.004 100.215 l 
365.5 100.215 l 368.922 100.215 372.035 102.192 373.5 105.274 c 374.977 
108.372 374.531 112.032 372.363 114.68 c h
372.363 114.68 m f
212.34 82.829 m 213.812 85.926 213.367 89.586 211.199 92.235 c 172.219 
139.954 l 186.562 139.954 l 189.961 139.954 193.062 141.891 194.539 
144.95 c 196.02 148.008 195.625 151.641 193.523 154.317 c 151.578 
207.391 l 160.926 207.391 l 164.266 207.391 167.324 209.262 168.836 
212.247 c 170.34 215.227 170.047 218.797 168.07 221.497 c 110.863 
299.489 l 109.863 300.852 108.281 301.653 106.602 301.653 c 104.918 
301.653 103.336 300.852 102.336 299.489 c 45.129 221.497 l 43.152 
218.797 42.859 215.227 44.363 212.247 c 45.875 209.262 48.934 207.391 
52.273 207.391 c 61.621 207.391 l 19.676 154.317 l 17.574 151.641 17.18 
148.008 18.656 144.95 c 20.137 141.891 23.242 139.954 26.637 139.954 c 
40.98 139.954 l 2 92.235 l -0.168 89.586 -0.613 85.926 0.859 82.829 c 
2.324 79.747 5.441 77.77 8.863 77.77 c 77.234 77.77 l 77.234 8.856 l 
77.234 3.961 81.207 0.001 86.102 0.001 c 127.102 0.001 l 131.996 0.001 
135.965 3.961 135.965 8.856 c 135.965 77.77 l 204.336 77.77 l 207.758 
77.77 210.875 79.747 212.34 82.829 c h
212.34 82.829 m f
Q Q
showpage
%%Trailer
count op_count sub {pop} repeat
countdictstack dict_count sub {end} repeat
cairo_eps_state restore
%%EOF
