%!PS-Adobe-3.0 EPSF-3.0
%%Creator: cairo 1.10.2 (http://cairographics.org)
%%CreationDate: Fri Jul  4 09:19:42 2014
%%Pages: 1
%%BoundingBox: 0 -1 1362 657
%%DocumentData: Clean7Bit
%%LanguageLevel: 2
%%EndComments
%%BeginProlog
/cairo_eps_state save def
/dict_count countdictstack def
/op_count count 1 sub def
userdict begin
/q { gsave } bind def
/Q { grestore } bind def
/cm { 6 array astore concat } bind def
/w { setlinewidth } bind def
/J { setlinecap } bind def
/j { setlinejoin } bind def
/M { setmiterlimit } bind def
/d { setdash } bind def
/m { moveto } bind def
/l { lineto } bind def
/c { curveto } bind def
/h { closepath } bind def
/re { exch dup neg 3 1 roll 5 3 roll moveto 0 rlineto
      0 exch rlineto 0 rlineto closepath } bind def
/S { stroke } bind def
/f { fill } bind def
/f* { eofill } bind def
/n { newpath } bind def
/W { clip } bind def
/W* { eoclip } bind def
/BT { } bind def
/ET { } bind def
/pdfmark where { pop globaldict /?pdfmark /exec load put }
    { globaldict begin /?pdfmark /pop load def /pdfmark
    /cleartomark load def end } ifelse
/BDC { mark 3 1 roll /BDC pdfmark } bind def
/EMC { mark /EMC pdfmark } bind def
/cairo_store_point { /cairo_point_y exch def /cairo_point_x exch def } def
/Tj { show currentpoint cairo_store_point } bind def
/TJ {
  {
    dup
    type /stringtype eq
    { show } { -0.001 mul 0 cairo_font_matrix dtransform rmoveto } ifelse
  } forall
  currentpoint cairo_store_point
} bind def
/cairo_selectfont { cairo_font_matrix aload pop pop pop 0 0 6 array astore
    cairo_font exch selectfont cairo_point_x cairo_point_y moveto } bind def
/Tf { pop /cairo_font exch def /cairo_font_matrix where
      { pop cairo_selectfont } if } bind def
/Td { matrix translate cairo_font_matrix matrix concatmatrix dup
      /cairo_font_matrix exch def dup 4 get exch 5 get cairo_store_point
      /cairo_font where { pop cairo_selectfont } if } bind def
/Tm { 2 copy 8 2 roll 6 array astore /cairo_font_matrix exch def
      cairo_store_point /cairo_font where { pop cairo_selectfont } if } bind def
/g { setgray } bind def
/rg { setrgbcolor } bind def
/d1 { setcachedevice } bind def
%%EndProlog
%%Page: 1 1
%%BeginPageSetup
%%PageBoundingBox: 0 -1 1362 657
%%EndPageSetup
q 0 -1 1362 658 rectclip q
0 656.497 1362 -657 re W n
0 g
1354.289 14.005 m 1354.289 18.36 l 1354.289 19.243 1353.574 19.958 
1352.691 19.958 c 1339.199 19.958 l 1338.316 19.958 1337.602 19.243 
1337.602 18.36 c 1337.602 14.005 l 1337.602 13.122 1338.316 12.407 
1339.199 12.407 c 1352.691 12.407 l 1353.574 12.407 1354.289 13.122 
1354.289 14.005 c h
1346.156 12.95 m 1345.656 14.61 l 1343.805 14.61 l 1343.344 12.95 l 
1341.828 12.95 l 1343.805 19.415 l 1345.723 19.415 l 1347.727 12.95 l h
1350.062 12.95 m 1348.594 12.95 l 1348.594 19.415 l 1350.062 19.415 l h
1350.062 12.95 m f
1344.715 18.321 m 1344.695 18.321 l 1344.602 17.938 1344.504 17.45 
1344.398 17.075 c 1344.016 15.704 l 1345.445 15.704 l 1345.043 17.075 l 
1344.926 17.458 1344.812 17.938 1344.715 18.321 c h
1344.715 18.321 m f
1360.891 24.813 m 1343.473 24.813 l 1343.105 24.813 1342.809 24.517 
1342.809 24.145 c 1342.809 20.962 l 1344.809 20.962 l 1344.809 23.145 l 
1359.457 23.145 l 1359.457 7.47 l 1355.484 7.474 l 1355.289 7.474 
1355.102 7.395 1354.961 7.259 c 1354.824 7.118 1354.746 6.931 1354.746 
6.735 c 1354.758 1.763 l 1344.809 1.763 l 1344.809 11.431 l 1342.809 
11.431 l 1342.809 0.665 l 1342.809 0.298 1343.105 0.001 1343.473 0.001 
c 1356.465 0.001 l 1356.652 0.001 1356.832 0.083 1356.961 0.22 c 
1361.387 5.177 l 1361.496 5.298 1361.555 5.458 1361.555 5.622 c 
1361.555 24.149 l 1361.555 24.517 1361.258 24.813 1360.891 24.813 c h
1360.891 24.813 m f
10.719 647.477 m 10.281 647.208 9.832 647.122 9.367 647.188 c 8.902 
647.251 8.434 647.438 7.973 647.669 c 7.746 647.79 7.516 647.911 7.293 
648.052 c 7.059 648.185 6.855 648.321 6.598 648.489 c 6.492 648.548 
6.387 648.606 6.281 648.665 c 6.234 649.138 6.172 649.892 6.18 650.298 
c 6.191 650.763 6.223 651.231 6.285 651.692 c 6.348 652.153 6.445 
652.614 6.59 653.063 c 6.656 653.255 6.73 653.446 6.816 653.63 c 6.855 
653.642 6.895 653.649 6.93 653.657 c 6.941 653.653 6.949 653.653 6.957 
653.653 c 6.957 653.657 6.953 653.657 6.949 653.661 c 6.973 653.669 7 
653.673 7.023 653.681 c 7.109 653.618 7.191 653.56 7.258 653.489 c 
7.359 653.388 7.426 653.278 7.469 653.153 c 7.508 653.032 7.52 652.892 
7.52 652.743 c 7.52 652.591 7.504 652.435 7.5 652.259 c 7.621 652.384 
7.707 652.536 7.758 652.704 c 7.805 652.872 7.816 653.063 7.754 653.247 
c 7.699 653.435 7.562 653.595 7.398 653.681 c 7.363 653.7 7.328 653.716 
7.293 653.727 c 7.469 653.755 7.637 653.77 7.797 653.77 c 8.109 653.77 
8.387 653.704 8.641 653.575 c 8.898 653.442 9.137 653.247 9.367 653.013 
c 9.605 652.778 9.824 652.509 10.09 652.231 c 10.082 652.614 9.977 
652.981 9.793 653.321 c 9.605 653.657 9.324 653.974 8.941 654.169 c 
8.566 654.368 8.102 654.403 7.715 654.286 c 7.391 654.192 7.109 654.013 
6.898 653.77 c 6.895 653.77 6.891 653.77 6.887 653.77 c 6.887 653.767 
6.891 653.767 6.895 653.767 c 6.887 653.759 6.883 653.755 6.879 653.747 
c 6.879 653.751 6.875 653.751 6.875 653.755 c 6.887 653.778 6.898 
653.802 6.914 653.821 c 7.168 654.079 7.418 654.294 7.68 654.446 c 
7.945 654.61 8.219 654.696 8.504 654.716 c 8.789 654.735 9.094 654.692 
9.418 654.61 c 9.738 654.532 10.066 654.415 10.438 654.317 c 10.23 
654.638 9.953 654.899 9.621 655.095 c 9.285 655.286 8.879 655.411 8.457 
655.38 c 8.031 655.352 7.613 655.145 7.34 654.849 c 7.254 654.751 7.18 
654.649 7.113 654.544 c 7.121 654.606 7.129 654.669 7.129 654.735 c 
7.129 655.142 6.957 655.571 6.66 655.876 c 6.363 656.185 5.98 656.364 
5.605 656.442 c 5.223 656.52 4.844 656.517 4.477 656.415 c 4.812 
656.239 5.137 656.106 5.43 655.946 c 5.723 655.794 5.98 655.622 6.18 
655.415 c 6.379 655.208 6.52 654.962 6.613 654.661 c 6.688 654.423 
6.727 654.157 6.75 653.868 c 6.691 654.161 6.543 654.442 6.332 654.681 
c 6.062 654.981 5.648 655.192 5.223 655.224 c 4.797 655.259 4.391 
655.138 4.059 654.946 c 3.723 654.755 3.441 654.497 3.23 654.177 c 
3.602 654.27 3.934 654.384 4.254 654.462 c 4.574 654.54 4.883 654.579 
5.168 654.56 c 5.453 654.536 5.727 654.446 5.992 654.282 c 6.133 
654.196 6.266 654.095 6.402 653.981 c 6.258 653.997 6.105 653.97 5.977 
653.899 c 5.805 653.813 5.676 653.669 5.594 653.517 c 5.508 653.364 
5.461 653.196 5.457 653.02 c 5.574 653.145 5.676 653.27 5.785 653.376 c 
5.891 653.481 6 653.571 6.113 653.63 c 6.23 653.688 6.355 653.72 6.496 
653.72 c 6.555 653.72 6.613 653.712 6.676 653.704 c 6.555 653.536 6.438 
653.36 6.336 653.177 c 6.094 652.747 5.906 652.29 5.746 651.825 c 5.586 
651.356 5.457 650.88 5.352 650.399 c 5.281 650.071 5.254 649.56 5.23 
649.099 c 5.129 649.13 5.031 649.161 4.93 649.185 c 4.34 649.329 3.727 
649.372 3.133 649.313 c 2.535 649.255 1.957 649.099 1.426 648.864 c 
0.898 648.618 0.398 648.317 0 647.911 c 1.055 648.306 2.129 648.493 
3.156 648.442 c 4.184 648.388 5.152 648.067 6.02 647.536 c 6.23 647.407 
6.492 647.239 6.742 647.099 c 6.996 646.962 7.258 646.829 7.535 646.712 
c 8.082 646.489 8.68 646.306 9.328 646.317 c 9.652 646.321 9.98 646.388 
10.281 646.517 c 10.586 646.645 10.848 646.837 11.062 647.056 c 11.48 
647.505 11.742 648.013 11.953 648.54 c 11.543 648.149 11.156 647.735 
10.719 647.477 c h
10.719 647.477 m f
Q Q
showpage
%%Trailer
count op_count sub {pop} repeat
countdictstack dict_count sub {end} repeat
cairo_eps_state restore
%%EOF
