%!PS-Adobe-3.0 EPSF-3.0
%%Creator: cairo 1.10.2 (http://cairographics.org)
%%CreationDate: Fri Apr 24 12:40:42 2015
%%Pages: 1
%%BoundingBox: 0 0 316 316
%%DocumentData: Clean7Bit
%%LanguageLevel: 2
%%EndComments
%%BeginProlog
/cairo_eps_state save def
/dict_count countdictstack def
/op_count count 1 sub def
userdict begin
/q { gsave } bind def
/Q { grestore } bind def
/cm { 6 array astore concat } bind def
/w { setlinewidth } bind def
/J { setlinecap } bind def
/j { setlinejoin } bind def
/M { setmiterlimit } bind def
/d { setdash } bind def
/m { moveto } bind def
/l { lineto } bind def
/c { curveto } bind def
/h { closepath } bind def
/re { exch dup neg 3 1 roll 5 3 roll moveto 0 rlineto
      0 exch rlineto 0 rlineto closepath } bind def
/S { stroke } bind def
/f { fill } bind def
/f* { eofill } bind def
/n { newpath } bind def
/W { clip } bind def
/W* { eoclip } bind def
/BT { } bind def
/ET { } bind def
/pdfmark where { pop globaldict /?pdfmark /exec load put }
    { globaldict begin /?pdfmark /pop load def /pdfmark
    /cleartomark load def end } ifelse
/BDC { mark 3 1 roll /BDC pdfmark } bind def
/EMC { mark /EMC pdfmark } bind def
/cairo_store_point { /cairo_point_y exch def /cairo_point_x exch def } def
/Tj { show currentpoint cairo_store_point } bind def
/TJ {
  {
    dup
    type /stringtype eq
    { show } { -0.001 mul 0 cairo_font_matrix dtransform rmoveto } ifelse
  } forall
  currentpoint cairo_store_point
} bind def
/cairo_selectfont { cairo_font_matrix aload pop pop pop 0 0 6 array astore
    cairo_font exch selectfont cairo_point_x cairo_point_y moveto } bind def
/Tf { pop /cairo_font exch def /cairo_font_matrix where
      { pop cairo_selectfont } if } bind def
/Td { matrix translate cairo_font_matrix matrix concatmatrix dup
      /cairo_font_matrix exch def dup 4 get exch 5 get cairo_store_point
      /cairo_font where { pop cairo_selectfont } if } bind def
/Tm { 2 copy 8 2 roll 6 array astore /cairo_font_matrix exch def
      cairo_store_point /cairo_font where { pop cairo_selectfont } if } bind def
/g { setgray } bind def
/rg { setrgbcolor } bind def
/d1 { setcachedevice } bind def
%%EndProlog
%%Page: 1 1
%%BeginPageSetup
%%PageBoundingBox: 0 0 316 316
%%EndPageSetup
q 0 0 316 316 rectclip q
0 g
250.402 316 m 65.598 316 l 29.43 316 0 286.574 0 250.402 c 0 65.605 l 0 
29.43 29.43 0 65.598 0 c 250.402 0 l 286.574 0 316 29.43 316 65.605 c 
316 250.402 l 316 286.574 286.574 316 250.402 316 c h
304 65.605 m 304 36.047 279.957 12 250.402 12 c 65.598 12 l 36.043 12 
12 36.047 12 65.605 c 12 250.402 l 12 279.957 36.043 304 65.598 304 c 
250.402 304 l 279.957 304 304 279.957 304 250.402 c h
304 65.605 m f
240.539 187.277 m 240.539 202.348 l 240.539 204.742 238.598 206.68 
236.203 206.68 c 233.812 206.68 231.871 204.742 231.871 202.348 c 
231.871 190.906 l 231.266 190.977 230.648 191.016 230.023 191.016 c 
207.301 191.016 l 207.301 191.016 176.801 216.301 165.289 220.359 c 
149.66 225.867 132.66 216.348 127.789 200.512 c 99.012 107.625 l 65.91 
57.785 l 60.82 50.117 62.906 39.773 70.574 34.68 c 73.41 32.797 76.613 
31.895 79.781 31.895 c 85.176 31.895 90.473 34.512 93.68 39.344 c 
128.07 91.125 l 128.926 92.414 129.598 93.812 130.07 95.289 c 136.66 
115.98 l 146.539 97.895 l 156.234 42.16 l 157.645 34.055 164.684 28.344 
172.637 28.344 c 173.582 28.344 174.547 28.426 175.512 28.594 c 184.578 
30.172 190.652 38.801 189.074 47.871 c 178.91 106.324 l 178.598 108.121 
177.992 109.855 177.113 111.457 c 167.402 129.238 l 168.91 131.543 
170.129 134.094 170.977 136.859 c 180.832 168.879 l 192.43 160.719 l 
195.238 158.742 198.59 157.684 202.023 157.684 c 230.023 157.684 l 
230.648 157.684 231.266 157.723 231.871 157.789 c 231.871 43.68 l 
231.871 41.285 233.812 39.348 236.203 39.348 c 238.598 39.348 240.539 
41.285 240.539 43.68 c 240.539 161.418 l 244.293 164.477 246.691 
169.129 246.691 174.348 c 246.691 179.566 244.293 184.219 240.539 
187.277 c h
240.539 187.277 m f
217.215 251.516 m 217.215 233.75 202.816 219.348 185.051 219.348 c 
167.285 219.348 152.887 233.75 152.887 251.516 c 152.887 269.277 
167.285 283.68 185.051 283.68 c 202.816 283.68 217.215 269.277 217.215 
251.516 c h
217.215 251.516 m f
85.711 139.293 m 87.336 138.797 88.973 138.562 90.586 138.562 c 97.723 
138.562 104.328 143.188 106.52 150.367 c 123.676 206.57 l 126.363 
215.375 121.406 224.691 112.602 227.379 c 103.797 230.066 94.48 225.109 
91.793 216.305 c 74.637 160.102 l 71.949 151.297 76.906 141.98 85.711 
139.293 c h
85.711 139.293 m f
Q Q
showpage
%%Trailer
count op_count sub {pop} repeat
countdictstack dict_count sub {end} repeat
cairo_eps_state restore
%%EOF
