%!PS-Adobe-3.0 EPSF-3.0
%%Creator: cairo 1.10.2 (http://cairographics.org)
%%CreationDate: Fri Jul  4 09:03:35 2014
%%Pages: 1
%%BoundingBox: 0 -1 21 21
%%DocumentData: Clean7Bit
%%LanguageLevel: 2
%%EndComments
%%BeginProlog
/cairo_eps_state save def
/dict_count countdictstack def
/op_count count 1 sub def
userdict begin
/q { gsave } bind def
/Q { grestore } bind def
/cm { 6 array astore concat } bind def
/w { setlinewidth } bind def
/J { setlinecap } bind def
/j { setlinejoin } bind def
/M { setmiterlimit } bind def
/d { setdash } bind def
/m { moveto } bind def
/l { lineto } bind def
/c { curveto } bind def
/h { closepath } bind def
/re { exch dup neg 3 1 roll 5 3 roll moveto 0 rlineto
      0 exch rlineto 0 rlineto closepath } bind def
/S { stroke } bind def
/f { fill } bind def
/f* { eofill } bind def
/n { newpath } bind def
/W { clip } bind def
/W* { eoclip } bind def
/BT { } bind def
/ET { } bind def
/pdfmark where { pop globaldict /?pdfmark /exec load put }
    { globaldict begin /?pdfmark /pop load def /pdfmark
    /cleartomark load def end } ifelse
/BDC { mark 3 1 roll /BDC pdfmark } bind def
/EMC { mark /EMC pdfmark } bind def
/cairo_store_point { /cairo_point_y exch def /cairo_point_x exch def } def
/Tj { show currentpoint cairo_store_point } bind def
/TJ {
  {
    dup
    type /stringtype eq
    { show } { -0.001 mul 0 cairo_font_matrix dtransform rmoveto } ifelse
  } forall
  currentpoint cairo_store_point
} bind def
/cairo_selectfont { cairo_font_matrix aload pop pop pop 0 0 6 array astore
    cairo_font exch selectfont cairo_point_x cairo_point_y moveto } bind def
/Tf { pop /cairo_font exch def /cairo_font_matrix where
      { pop cairo_selectfont } if } bind def
/Td { matrix translate cairo_font_matrix matrix concatmatrix dup
      /cairo_font_matrix exch def dup 4 get exch 5 get cairo_store_point
      /cairo_font where { pop cairo_selectfont } if } bind def
/Tm { 2 copy 8 2 roll 6 array astore /cairo_font_matrix exch def
      cairo_store_point /cairo_font where { pop cairo_selectfont } if } bind def
/g { setgray } bind def
/rg { setrgbcolor } bind def
/d1 { setcachedevice } bind def
%%EndProlog
%%Page: 1 1
%%BeginPageSetup
%%PageBoundingBox: 0 -1 21 21
%%EndPageSetup
q 0 -1 21 22 rectclip q
0 20.807 21 -21 re W n
0 g
19.852 18.807 m 19.852 17.788 19.023 16.96 18 16.96 c 16.977 16.96 
16.148 17.788 16.148 18.807 c 16.148 19.831 16.977 20.659 18 20.659 c 
19.023 20.659 19.852 19.831 19.852 18.807 c h
19.852 18.807 m f
13.891 18.311 m 14.719 18.311 15.938 17.803 15.938 16.585 c 15.938 
15.366 15.156 13.116 15.156 13.116 c 15.156 13.116 17.199 11.78 17.707 
11.37 c 18.773 10.51 18.41 9.741 16.984 10.342 c 14.668 11.323 13.582 
11.803 13.406 12.413 c 13.234 13.026 13.387 14.264 13.387 14.264 c 
12.051 13.706 l 6.387 17.87 l 6.387 17.87 5.867 17.499 5.594 17.499 c 
5.32 17.499 4.996 17.698 4.996 17.698 c 5.625 18.546 l 4.949 19.37 l 
5.887 18.971 l 5.871 18.971 6.469 19.753 6.469 19.753 c 6.469 19.753 
6.777 19.569 6.848 19.206 c 6.922 18.842 6.789 18.495 6.789 18.495 c 
9.227 16.706 l 9.227 16.706 10.664 18.311 13.891 18.311 c h
13.891 18.311 m f
7.898 15.042 m 7.898 15.042 12.488 11.831 13.098 11.35 c 13.711 10.87 
15.164 9.6 13.633 7.717 c 12.133 5.874 10.527 4.069 10.527 4.069 c 
9.609 4.464 l 8.434 5.073 l 8.434 5.073 10.641 7.827 11.031 8.35 c 
11.426 8.874 11.301 9.307 10.766 9.706 c 10.25 10.092 9.375 10.6 8.598 
11.139 c 7.832 11.675 6.633 13.307 7.898 15.042 c h
7.898 15.042 m f
1.6 w
1 J
1 j
[] 0.0 d
10 M q 1 0 0 -1 0 20.807322 cm
0.988 10.645 m 16.809 19.719 l 16.809 19.719 18.859 20.633 19.949 
19.152 c S Q
Q Q
showpage
%%Trailer
count op_count sub {pop} repeat
countdictstack dict_count sub {end} repeat
cairo_eps_state restore
%%EOF
