%!PS-Adobe-3.0 EPSF-3.0
%%Creator: cairo 1.10.2 (http://cairographics.org)
%%CreationDate: Fri Jul  4 09:17:57 2014
%%Pages: 1
%%BoundingBox: 0 -1 44 50
%%DocumentData: Clean7Bit
%%LanguageLevel: 2
%%EndComments
%%BeginProlog
/cairo_eps_state save def
/dict_count countdictstack def
/op_count count 1 sub def
userdict begin
/q { gsave } bind def
/Q { grestore } bind def
/cm { 6 array astore concat } bind def
/w { setlinewidth } bind def
/J { setlinecap } bind def
/j { setlinejoin } bind def
/M { setmiterlimit } bind def
/d { setdash } bind def
/m { moveto } bind def
/l { lineto } bind def
/c { curveto } bind def
/h { closepath } bind def
/re { exch dup neg 3 1 roll 5 3 roll moveto 0 rlineto
      0 exch rlineto 0 rlineto closepath } bind def
/S { stroke } bind def
/f { fill } bind def
/f* { eofill } bind def
/n { newpath } bind def
/W { clip } bind def
/W* { eoclip } bind def
/BT { } bind def
/ET { } bind def
/pdfmark where { pop globaldict /?pdfmark /exec load put }
    { globaldict begin /?pdfmark /pop load def /pdfmark
    /cleartomark load def end } ifelse
/BDC { mark 3 1 roll /BDC pdfmark } bind def
/EMC { mark /EMC pdfmark } bind def
/cairo_store_point { /cairo_point_y exch def /cairo_point_x exch def } def
/Tj { show currentpoint cairo_store_point } bind def
/TJ {
  {
    dup
    type /stringtype eq
    { show } { -0.001 mul 0 cairo_font_matrix dtransform rmoveto } ifelse
  } forall
  currentpoint cairo_store_point
} bind def
/cairo_selectfont { cairo_font_matrix aload pop pop pop 0 0 6 array astore
    cairo_font exch selectfont cairo_point_x cairo_point_y moveto } bind def
/Tf { pop /cairo_font exch def /cairo_font_matrix where
      { pop cairo_selectfont } if } bind def
/Td { matrix translate cairo_font_matrix matrix concatmatrix dup
      /cairo_font_matrix exch def dup 4 get exch 5 get cairo_store_point
      /cairo_font where { pop cairo_selectfont } if } bind def
/Tm { 2 copy 8 2 roll 6 array astore /cairo_font_matrix exch def
      cairo_store_point /cairo_font where { pop cairo_selectfont } if } bind def
/g { setgray } bind def
/rg { setrgbcolor } bind def
/d1 { setcachedevice } bind def
%%EndProlog
%%Page: 1 1
%%BeginPageSetup
%%PageBoundingBox: 0 -1 44 50
%%EndPageSetup
q 0 -1 44 51 rectclip q
0 49.387 44 -50 re W n
0 g
43.539 41.075 m 34.738 49.075 l 34.734 49.083 34.723 49.083 34.715 
49.09 c 34.605 49.188 34.48 49.258 34.348 49.309 c 34.332 49.313 34.316 
49.317 34.301 49.325 c 34.191 49.36 34.078 49.379 33.965 49.383 c 
33.953 49.383 33.945 49.387 33.934 49.387 c 0 49.387 l 0 10 l 0 9.989 
0.004 9.977 0.008 9.965 c 0.012 9.848 0.031 9.735 0.066 9.625 c 0.07 
9.61 0.074 9.59 0.082 9.575 c 0.133 9.446 0.207 9.321 0.305 9.208 c 
0.312 9.2 0.312 9.192 0.32 9.184 c 8.453 0.387 l 8.555 0.278 8.676 
0.192 8.801 0.129 c 8.801 0 l 43.934 0 l 43.934 40.586 l 43.848 40.586 
l 43.785 40.766 43.691 40.938 43.539 41.075 c h
8.801 3.547 m 2.398 10.473 l 2.398 45.29 l 8.801 38.891 l h
8.414 42.668 m 5.379 45.704 l 4.098 46.989 l 33.469 46.989 l 33.504 
46.954 l 39.895 41.145 l 40.508 40.586 l 39.387 40.586 l 39.355 40.555 
l 39.32 40.586 l 10.496 40.586 l h
41.531 2.399 m 33.141 2.399 l 33.141 5.387 l 33.141 6.711 32.066 7.786 
30.738 7.786 c 22.191 7.786 l 20.867 7.786 19.793 6.711 19.793 5.387 c 
19.793 2.399 l 11.199 2.399 l 11.199 38.188 l 41.535 38.188 l 41.535 
2.399 l h
41.531 2.399 m f
13.957 29.258 m 14.297 29.258 14.574 29.571 14.574 29.95 c 14.574 
31.231 l 14.574 31.614 14.883 31.922 15.266 31.922 c 16.203 31.922 l 
16.586 31.922 16.895 31.614 16.895 31.231 c 16.895 29.95 l 16.895 
29.571 17.172 29.258 17.512 29.258 c 17.855 29.258 18.133 29.571 18.133 
29.95 c 18.133 34.536 l 18.133 34.918 17.855 35.227 17.512 35.227 c 
17.172 35.227 16.895 34.918 16.895 34.536 c 16.895 33.641 l 16.895 
33.262 16.586 32.95 16.203 32.95 c 15.266 32.95 l 14.883 32.95 14.574 
33.262 14.574 33.641 c 14.574 34.536 l 14.574 34.918 14.297 35.227 
13.957 35.227 c 13.613 35.227 13.336 34.918 13.336 34.536 c 13.336 
29.95 l 13.336 29.567 13.613 29.258 13.957 29.258 c h
13.957 29.258 m f
21.969 29.094 m 22.824 29.094 23.477 29.325 23.926 29.79 c 24.527 30.36 
24.828 31.18 24.828 32.25 c 24.828 33.344 24.527 34.165 23.926 34.711 c 
23.477 35.176 22.824 35.407 21.969 35.407 c 21.117 35.407 20.465 35.176 
20.016 34.711 c 19.41 34.165 19.109 33.344 19.109 32.25 c 19.109 31.18 
19.41 30.36 20.016 29.79 c 20.465 29.325 21.117 29.094 21.969 29.094 c 
h
20.789 33.805 m 21.082 34.168 21.477 34.352 21.969 34.352 c 22.465 
34.352 22.855 34.168 23.145 33.801 c 23.438 33.438 23.582 32.918 23.582 
32.25 c 23.582 31.579 23.438 31.059 23.145 30.696 c 22.855 30.333 
22.465 30.149 21.969 30.149 c 21.477 30.149 21.082 30.333 20.789 30.696 
c 20.492 31.059 20.348 31.579 20.348 32.25 c 20.348 32.922 20.492 
33.442 20.789 33.805 c h
20.789 33.805 m f
25.973 34.168 m 26.383 34.168 l 26.766 34.168 27.074 33.86 27.074 
33.477 c 27.074 29.95 l 27.074 29.567 27.355 29.258 27.703 29.258 c 
28.047 29.258 28.328 29.567 28.328 29.95 c 28.328 33.477 l 28.328 33.86 
28.637 34.168 29.02 34.168 c 29.422 34.168 l 29.805 34.168 30.113 
34.407 30.113 34.696 c 30.113 34.989 29.805 35.227 29.422 35.227 c 
25.973 35.227 l 25.59 35.227 25.281 34.989 25.281 34.696 c 25.281 
34.407 25.59 34.168 25.973 34.168 c h
25.973 34.168 m f
31.57 29.258 m 34.711 29.258 l 35.094 29.258 35.402 29.5 35.402 29.797 
c 35.402 30.09 35.094 30.333 34.711 30.333 c 32.789 30.333 l 32.406 
30.333 32.098 30.641 32.098 31.024 c 32.098 31.176 l 32.098 31.559 
32.406 31.868 32.789 31.868 c 34.305 31.868 l 34.688 31.868 34.996 
32.098 34.996 32.387 c 34.996 32.672 34.688 32.903 34.305 32.903 c 
32.789 32.903 l 32.406 32.903 32.098 33.188 32.098 33.54 c 32.098 
33.887 32.406 34.172 32.789 34.172 c 34.566 34.172 l 34.945 34.172 
35.258 34.407 35.258 34.7 c 35.258 34.989 34.945 35.227 34.566 35.227 c 
31.57 35.227 l 31.188 35.227 30.879 34.918 30.879 34.536 c 30.879 29.95 
l 30.879 29.567 31.188 29.258 31.57 29.258 c h
31.57 29.258 m f
37.062 29.258 m 39.906 29.258 l 40.289 29.258 40.598 29.5 40.598 29.797 
c 40.598 30.09 40.289 30.333 39.906 30.333 c 38.309 30.333 l 37.93 
30.333 37.617 30.641 37.617 31.024 c 37.617 34.536 l 37.617 34.918 
37.34 35.227 36.996 35.227 c 36.652 35.227 36.371 34.918 36.371 34.536 
c 36.371 29.95 l 36.371 29.567 36.68 29.258 37.062 29.258 c h
37.062 29.258 m f
19.668 27.094 m 14.867 27.094 l 14.426 27.094 14.066 26.735 14.066 
26.293 c 14.066 21.286 l 14.066 20.844 14.426 20.489 14.867 20.489 c 
19.668 20.489 l 20.109 20.489 20.465 20.844 20.465 21.286 c 20.465 
26.293 l 20.465 26.735 20.109 27.094 19.668 27.094 c h
19.668 27.094 m f
28.809 27.137 m 24.012 27.055 l 23.57 27.047 23.219 26.684 23.223 
26.243 c 23.309 21.235 l 23.32 20.793 23.684 20.442 24.125 20.45 c 
28.922 20.532 l 29.363 20.54 29.719 20.903 29.711 21.344 c 29.625 
26.352 l 29.613 26.793 29.25 27.145 28.809 27.137 c h
28.809 27.137 m f
38.066 27.094 m 33.266 27.094 l 32.824 27.094 32.465 26.735 32.465 
26.293 c 32.465 21.286 l 32.465 20.844 32.824 20.489 33.266 20.489 c 
38.066 20.489 l 38.508 20.489 38.867 20.844 38.867 21.286 c 38.867 
26.293 l 38.867 26.735 38.508 27.094 38.066 27.094 c h
38.066 27.094 m f
19.668 18.293 m 14.867 18.293 l 14.426 18.293 14.066 17.934 14.066 
17.493 c 14.066 12.489 l 14.066 12.047 14.426 11.688 14.867 11.688 c 
19.668 11.688 l 20.109 11.688 20.465 12.047 20.465 12.489 c 20.465 
17.493 l 20.465 17.934 20.109 18.293 19.668 18.293 c h
19.668 18.293 m f
28.809 18.34 m 24.012 18.254 l 23.57 18.247 23.219 17.883 23.223 17.442 
c 23.309 12.434 l 23.32 11.993 23.684 11.641 24.125 11.649 c 28.922 
11.731 l 29.363 11.739 29.719 12.106 29.711 12.547 c 29.625 17.551 l 
29.613 17.993 29.25 18.344 28.809 18.34 c h
28.809 18.34 m f
38.066 18.293 m 33.266 18.293 l 32.824 18.293 32.465 17.934 32.465 
17.493 c 32.465 12.489 l 32.465 12.047 32.824 11.688 33.266 11.688 c 
38.066 11.688 l 38.508 11.688 38.867 12.047 38.867 12.489 c 38.867 
17.493 l 38.867 17.934 38.508 18.293 38.066 18.293 c h
38.066 18.293 m f
Q Q
showpage
%%Trailer
count op_count sub {pop} repeat
countdictstack dict_count sub {end} repeat
cairo_eps_state restore
%%EOF
