%!PS-Adobe-3.0 EPSF-3.0
%%Creator: cairo 1.10.2 (http://cairographics.org)
%%CreationDate: Fri Jul  4 09:21:07 2014
%%Pages: 1
%%BoundingBox: 0 -1 44 50
%%DocumentData: Clean7Bit
%%LanguageLevel: 2
%%EndComments
%%BeginProlog
/cairo_eps_state save def
/dict_count countdictstack def
/op_count count 1 sub def
userdict begin
/q { gsave } bind def
/Q { grestore } bind def
/cm { 6 array astore concat } bind def
/w { setlinewidth } bind def
/J { setlinecap } bind def
/j { setlinejoin } bind def
/M { setmiterlimit } bind def
/d { setdash } bind def
/m { moveto } bind def
/l { lineto } bind def
/c { curveto } bind def
/h { closepath } bind def
/re { exch dup neg 3 1 roll 5 3 roll moveto 0 rlineto
      0 exch rlineto 0 rlineto closepath } bind def
/S { stroke } bind def
/f { fill } bind def
/f* { eofill } bind def
/n { newpath } bind def
/W { clip } bind def
/W* { eoclip } bind def
/BT { } bind def
/ET { } bind def
/pdfmark where { pop globaldict /?pdfmark /exec load put }
    { globaldict begin /?pdfmark /pop load def /pdfmark
    /cleartomark load def end } ifelse
/BDC { mark 3 1 roll /BDC pdfmark } bind def
/EMC { mark /EMC pdfmark } bind def
/cairo_store_point { /cairo_point_y exch def /cairo_point_x exch def } def
/Tj { show currentpoint cairo_store_point } bind def
/TJ {
  {
    dup
    type /stringtype eq
    { show } { -0.001 mul 0 cairo_font_matrix dtransform rmoveto } ifelse
  } forall
  currentpoint cairo_store_point
} bind def
/cairo_selectfont { cairo_font_matrix aload pop pop pop 0 0 6 array astore
    cairo_font exch selectfont cairo_point_x cairo_point_y moveto } bind def
/Tf { pop /cairo_font exch def /cairo_font_matrix where
      { pop cairo_selectfont } if } bind def
/Td { matrix translate cairo_font_matrix matrix concatmatrix dup
      /cairo_font_matrix exch def dup 4 get exch 5 get cairo_store_point
      /cairo_font where { pop cairo_selectfont } if } bind def
/Tm { 2 copy 8 2 roll 6 array astore /cairo_font_matrix exch def
      cairo_store_point /cairo_font where { pop cairo_selectfont } if } bind def
/g { setgray } bind def
/rg { setrgbcolor } bind def
/d1 { setcachedevice } bind def
%%EndProlog
%%Page: 1 1
%%BeginPageSetup
%%PageBoundingBox: 0 -1 44 50
%%EndPageSetup
q 0 -1 44 51 rectclip q
0 49.366 44 -50 re W n
0 g
41.961 34.752 m 41.961 38.498 39.117 41.577 35.473 41.955 c 34.449 
44.713 31.801 46.686 28.684 46.686 c 27.32 46.686 26.051 46.303 24.961 
45.647 c 23.723 47.866 21.355 49.366 18.633 49.366 c 15.027 49.366 
12.043 46.725 11.492 43.276 c 11.195 43.311 10.898 43.334 10.594 43.334 
c 6.594 43.334 3.348 40.092 3.348 36.092 c 3.348 35.893 3.363 35.702 
3.379 35.51 c 1.352 34.225 0 31.967 0 29.389 c 0 27.112 1.055 25.08 
2.699 23.752 c 2.691 23.623 2.68 23.495 2.68 23.362 c 2.68 19.362 5.922 
16.116 9.926 16.116 c 11.125 16.116 12.254 16.412 13.246 16.928 c 
14.629 15.936 16.605 14.698 17.562 14.944 c 17.562 14.944 17.918 9.428 
17.84 8.03 c 17.695 5.366 16.895 2.401 16.332 -0.002 c 25.043 -0.002 l 
25.043 -0.002 23.758 5.35 23.703 7.135 c 23.645 8.924 24.262 12.213 
24.262 12.213 c 27.281 15.338 l 28.445 14.541 29.852 14.092 31.367 
14.092 c 35.109 14.092 38.191 16.94 38.57 20.588 c 41.328 21.608 43.301 
24.264 43.301 27.381 c 43.301 29.221 42.609 30.893 41.48 32.174 c 
41.785 32.975 41.961 33.842 41.961 34.752 c h
14.922 18.123 m 15.504 18.678 15.988 19.327 16.363 20.045 c 17.785 
17.065 l 17.781 17.065 17.008 16.725 14.922 18.123 c h
20.238 16.284 m 19.504 16.151 18.25 18.416 17.359 20.26 c 18.348 19.756 
19.461 19.467 20.645 19.467 c 20.949 19.467 21.246 19.491 21.543 19.526 
c 21.312 18.053 20.91 16.405 20.238 16.284 c h
23.367 14.834 m 21.664 14.362 22.684 17.885 23.172 19.928 c 23.523 
20.061 23.867 20.213 24.191 20.397 c 24.387 18.909 25.035 17.565 25.992 
16.506 c 25.16 15.768 24.207 15.065 23.367 14.834 c h
23.367 14.834 m f
Q Q
showpage
%%Trailer
count op_count sub {pop} repeat
countdictstack dict_count sub {end} repeat
cairo_eps_state restore
%%EOF
