%!PS-Adobe-3.0 EPSF-3.0
%%Creator: cairo 1.10.2 (http://cairographics.org)
%%CreationDate: Tue May 19 08:12:58 2015
%%Pages: 1
%%BoundingBox: 0 -1 338 282
%%DocumentData: Clean7Bit
%%LanguageLevel: 2
%%EndComments
%%BeginProlog
/cairo_eps_state save def
/dict_count countdictstack def
/op_count count 1 sub def
userdict begin
/q { gsave } bind def
/Q { grestore } bind def
/cm { 6 array astore concat } bind def
/w { setlinewidth } bind def
/J { setlinecap } bind def
/j { setlinejoin } bind def
/M { setmiterlimit } bind def
/d { setdash } bind def
/m { moveto } bind def
/l { lineto } bind def
/c { curveto } bind def
/h { closepath } bind def
/re { exch dup neg 3 1 roll 5 3 roll moveto 0 rlineto
      0 exch rlineto 0 rlineto closepath } bind def
/S { stroke } bind def
/f { fill } bind def
/f* { eofill } bind def
/n { newpath } bind def
/W { clip } bind def
/W* { eoclip } bind def
/BT { } bind def
/ET { } bind def
/pdfmark where { pop globaldict /?pdfmark /exec load put }
    { globaldict begin /?pdfmark /pop load def /pdfmark
    /cleartomark load def end } ifelse
/BDC { mark 3 1 roll /BDC pdfmark } bind def
/EMC { mark /EMC pdfmark } bind def
/cairo_store_point { /cairo_point_y exch def /cairo_point_x exch def } def
/Tj { show currentpoint cairo_store_point } bind def
/TJ {
  {
    dup
    type /stringtype eq
    { show } { -0.001 mul 0 cairo_font_matrix dtransform rmoveto } ifelse
  } forall
  currentpoint cairo_store_point
} bind def
/cairo_selectfont { cairo_font_matrix aload pop pop pop 0 0 6 array astore
    cairo_font exch selectfont cairo_point_x cairo_point_y moveto } bind def
/Tf { pop /cairo_font exch def /cairo_font_matrix where
      { pop cairo_selectfont } if } bind def
/Td { matrix translate cairo_font_matrix matrix concatmatrix dup
      /cairo_font_matrix exch def dup 4 get exch 5 get cairo_store_point
      /cairo_font where { pop cairo_selectfont } if } bind def
/Tm { 2 copy 8 2 roll 6 array astore /cairo_font_matrix exch def
      cairo_store_point /cairo_font where { pop cairo_selectfont } if } bind def
/g { setgray } bind def
/rg { setrgbcolor } bind def
/d1 { setcachedevice } bind def
%%EndProlog
%%Page: 1 1
%%BeginPageSetup
%%PageBoundingBox: 0 -1 338 282
%%EndPageSetup
q 0 -1 338 283 rectclip q
0 281.002 338 -282 re W n
0 g
190.469 261.338 m 189.812 261.471 189.145 261.581 188.457 261.655 c 
189.145 261.581 189.812 261.471 190.469 261.338 c h
190.469 261.338 m f
192.391 260.854 m 191.77 261.041 191.137 261.206 190.484 261.338 c 
191.137 261.202 191.77 261.041 192.391 260.854 c h
192.391 260.854 m f
200.598 256.002 m 201.023 255.581 201.438 255.139 201.832 254.674 c 
201.438 255.139 201.023 255.581 200.598 256.002 c h
200.598 256.002 m f
131.113 245.963 m 131.219 246.315 131.328 246.659 131.449 246.999 c 
131.445 246.999 131.445 246.999 131.445 246.999 c 131.328 246.659 
131.219 246.311 131.113 245.963 c h
131.113 245.963 m f
188.453 261.659 m 187.766 261.733 187.062 261.784 186.344 261.803 c 
187.062 261.784 187.766 261.733 188.453 261.659 c h
188.453 261.659 m f
197.582 258.444 m 197.074 258.776 196.547 259.088 196 259.377 c 196.547 
259.088 197.074 258.776 197.582 258.444 c h
197.582 258.444 m f
194.223 260.209 m 193.637 260.448 193.035 260.659 192.422 260.846 c 
193.035 260.659 193.637 260.448 194.223 260.209 c h
194.223 260.209 m f
199.109 257.331 m 198.637 257.709 198.148 258.069 197.645 258.401 c 
198.148 258.069 198.637 257.709 199.109 257.331 c h
199.109 257.331 m f
200.527 256.073 m 200.094 256.499 199.641 256.897 199.176 257.276 c 
199.641 256.897 200.094 256.499 200.527 256.073 c h
200.527 256.073 m f
195.953 259.401 m 195.406 259.69 194.84 259.956 194.262 260.194 c 
194.84 259.956 195.406 259.69 195.953 259.401 c h
195.953 259.401 m f
126.867 259.19 m 126.871 259.19 126.871 259.19 126.871 259.194 c 
126.766 259.077 126.656 258.963 126.551 258.85 c 126.551 258.85 126.551 
258.85 126.555 258.854 c 126.656 258.967 126.762 259.077 126.867 259.19 
c h
126.867 259.19 m f
128.426 260.725 m 128.43 260.729 128.434 260.733 128.438 260.733 c 
128.398 260.698 128.355 260.663 128.316 260.627 c 128.32 260.631 l 
128.355 260.663 128.391 260.694 128.426 260.725 c h
128.426 260.725 m f
140.176 267.838 m 140.109 267.811 140.043 267.784 139.977 267.76 c 
140.043 267.784 140.109 267.815 140.176 267.838 c h
140.176 267.838 m f
123.93 255.666 m 123.93 255.666 123.934 255.67 123.934 255.67 c 123.844 
255.549 123.754 255.424 123.668 255.299 c 123.668 255.307 l 123.754 
255.428 123.844 255.545 123.93 255.666 c h
123.93 255.666 m f
125.199 257.319 m 125.203 257.319 125.203 257.319 125.203 257.323 c 
125.168 257.28 125.137 257.237 125.102 257.194 c 125.105 257.198 
125.109 257.202 125.109 257.206 c 125.141 257.241 125.172 257.28 
125.199 257.319 c h
125.199 257.319 m f
130.234 262.276 m 130.234 262.28 130.234 262.28 130.238 262.28 c 
130.121 262.186 130.004 262.088 129.887 261.991 c 129.891 261.999 l 
130.004 262.092 130.117 262.186 130.234 262.276 c h
130.234 262.276 m f
136.121 266.084 m 136.121 266.084 136.125 266.084 136.125 266.084 c 136 
266.022 135.871 265.959 135.746 265.893 c 135.871 265.959 135.996 
266.022 136.121 266.084 c h
136.121 266.084 m f
132.121 263.686 m 132.121 263.69 132.125 263.69 132.125 263.69 c 
132.031 263.627 131.938 263.565 131.848 263.499 c 131.848 263.499 
131.848 263.499 131.848 263.499 c 131.938 263.565 132.031 263.624 
132.121 263.686 c h
132.121 263.686 m f
138.055 266.999 m 138.055 266.999 l 137.977 266.967 137.902 266.928 
137.824 266.893 c 137.824 266.893 137.824 266.897 137.824 266.897 c 
137.902 266.928 137.977 266.967 138.055 266.999 c h
138.055 266.999 m f
133.977 264.897 m 133.977 264.897 133.977 264.897 133.98 264.897 c 
133.867 264.831 133.758 264.76 133.648 264.69 c 133.648 264.69 133.652 
264.69 133.652 264.694 c 133.762 264.76 133.867 264.831 133.977 264.897 
c h
133.977 264.897 m f
207.504 241.186 m 207.395 241.952 207.258 242.698 207.105 243.424 c 
207.258 242.698 207.395 241.952 207.504 241.186 c h
207.504 241.186 m f
216.703 250.553 m 216.773 250.413 216.844 250.268 216.91 250.127 c 
216.844 250.268 216.773 250.413 216.703 250.553 c h
216.703 250.553 m f
216.152 251.635 m 216.191 251.561 216.234 251.487 216.273 251.413 c 
216.234 251.487 216.191 251.561 216.152 251.635 c h
216.152 251.635 m f
211.73 258.045 m 211.734 258.041 211.738 258.034 211.746 258.03 c 
211.738 258.034 211.734 258.041 211.73 258.045 c h
211.73 258.045 m f
217.266 249.346 m 217.344 249.166 217.422 248.991 217.5 248.811 c 
217.422 248.991 217.344 249.166 217.266 249.346 c h
217.266 249.346 m f
217.797 248.077 m 217.875 247.87 217.957 247.663 218.031 247.459 c 
217.957 247.663 217.875 247.87 217.797 248.077 c h
217.797 248.077 m f
210.832 259.038 m 210.84 259.03 210.844 259.022 210.852 259.014 c 
210.848 259.022 210.84 259.03 210.832 259.038 c h
210.832 259.038 m f
206.539 262.885 m 206.539 262.885 206.543 262.885 206.543 262.885 c 
206.543 262.885 206.539 262.885 206.539 262.885 c h
206.539 262.885 m f
218.281 246.764 m 218.363 246.534 218.438 246.303 218.512 246.069 c 
218.438 246.299 218.363 246.534 218.281 246.764 c h
218.281 246.764 m f
207.688 261.979 m 207.688 261.979 207.688 261.979 207.691 261.975 c 
207.688 261.979 207.688 261.979 207.688 261.979 c h
207.688 261.979 m f
219.434 242.62 m 219.535 242.147 219.625 241.67 219.707 241.186 c 
219.625 241.666 219.535 242.147 219.434 242.62 c h
219.434 242.62 m f
218.723 245.413 m 218.797 245.155 218.871 244.897 218.941 244.635 c 
218.871 244.897 218.797 245.155 218.723 245.413 c h
218.723 245.413 m f
205.039 249.651 m 204.762 250.237 204.465 250.803 204.152 251.35 c 
204.465 250.803 204.762 250.237 205.039 249.651 c h
205.039 249.651 m f
206.543 245.659 m 206.348 246.327 206.129 246.975 205.895 247.608 c 
206.129 246.975 206.348 246.327 206.543 245.659 c h
206.543 245.659 m f
204.09 251.459 m 203.773 252.002 203.441 252.53 203.09 253.034 c 
203.441 252.53 203.777 252.002 204.09 251.459 c h
204.09 251.459 m f
205.855 247.717 m 205.621 248.342 205.363 248.948 205.09 249.538 c 
205.363 248.948 205.621 248.342 205.855 247.717 c h
205.855 247.717 m f
219.105 244.03 m 219.184 243.729 219.254 243.424 219.32 243.124 c 
219.25 243.428 219.184 243.729 219.105 244.03 c h
219.105 244.03 m f
203.02 253.135 m 202.668 253.639 202.293 254.124 201.902 254.588 c 
202.293 254.124 202.668 253.639 203.02 253.135 c h
203.02 253.135 m f
207.094 243.479 m 206.941 244.194 206.762 244.889 206.566 245.569 c 
206.762 244.893 206.941 244.194 207.094 243.479 c h
207.094 243.479 m f
122.543 253.616 m 122.543 253.62 122.547 253.62 122.547 253.62 c 
122.484 253.522 122.43 253.424 122.367 253.327 c 122.371 253.327 
122.371 253.331 122.371 253.331 c 122.43 253.428 122.484 253.522 
122.543 253.616 c h
122.543 253.616 m f
120.387 249.569 m 120.387 249.569 120.387 249.569 120.391 249.569 c 
120.328 249.44 120.273 249.303 120.215 249.17 c 120.215 249.174 120.219 
249.174 120.219 249.174 c 120.273 249.307 120.328 249.436 120.387 
249.569 c h
120.387 249.569 m f
165.043 153.569 m 165.176 153.522 l 168.43 163.42 l h
165.043 153.569 m f
118.777 245.209 m 118.777 245.209 118.777 245.209 118.777 245.209 c 
118.734 245.061 118.691 244.909 118.648 244.756 c 118.648 244.756 
118.652 244.756 118.652 244.756 c 118.691 244.909 118.734 245.061 
118.777 245.209 c h
118.777 245.209 m f
119.512 247.424 m 119.512 247.428 119.512 247.428 119.512 247.432 c 
119.484 247.346 119.449 247.264 119.418 247.182 c 119.449 247.264 
119.48 247.342 119.512 247.424 c h
119.512 247.424 m f
121.461 251.741 m 121.461 251.741 121.465 251.745 121.465 251.749 c 
121.402 251.631 121.336 251.514 121.277 251.397 c 121.277 251.397 
121.277 251.401 121.277 251.401 c 121.336 251.514 121.402 251.627 
121.461 251.741 c h
121.461 251.741 m f
315.383 226.545 m 316.168 226.081 316.926 225.569 317.645 225.014 c 
316.926 225.569 316.168 226.081 315.383 226.545 c h
315.383 226.545 m f
317.746 224.932 m 318.086 224.67 318.418 224.397 318.742 224.112 c 
318.418 224.397 318.086 224.67 317.746 224.932 c h
317.746 224.932 m f
304.086 229.635 m 304.547 229.635 305.004 229.616 305.457 229.588 c 
305.004 229.616 304.547 229.635 304.086 229.635 c h
304.086 229.635 m f
307.246 229.409 m 308.141 229.28 309.02 229.1 309.875 228.87 c 309.016 
229.1 308.141 229.28 307.246 229.409 c h
307.246 229.409 m f
311.504 228.362 m 312.352 228.061 313.176 227.709 313.973 227.315 c 
313.176 227.709 312.352 228.061 311.504 228.362 c h
311.504 228.362 m f
320.816 222.041 m 321.121 221.69 321.418 221.334 321.703 220.967 c 
321.418 221.334 321.121 221.694 320.816 222.041 c h
320.816 222.041 m f
310.203 228.776 m 310.539 228.678 310.875 228.573 311.203 228.463 c 
310.875 228.573 310.539 228.678 310.203 228.776 c h
310.203 228.776 m f
314.191 227.202 m 314.531 227.026 314.871 226.842 315.199 226.651 c 
314.871 226.842 314.531 227.026 314.191 227.202 c h
314.191 227.202 m f
305.855 229.561 m 306.195 229.534 306.531 229.499 306.863 229.456 c 
306.531 229.499 306.195 229.534 305.855 229.561 c h
305.855 229.561 m f
321.711 220.956 m 322.293 220.206 322.824 219.413 323.309 218.592 c 
322.824 219.413 322.293 220.202 321.711 220.956 c h
321.711 220.956 m f
320.789 222.069 m 320.172 222.772 319.512 223.432 318.809 224.053 c 
319.512 223.432 320.172 222.772 320.789 222.069 c h
320.789 222.069 m f
131.848 263.499 m 131.848 263.499 131.848 263.499 131.848 263.499 c 
131.297 263.108 130.762 262.702 130.238 262.28 c 130.234 262.28 130.234 
262.28 130.234 262.276 c 130.762 262.702 131.297 263.108 131.848 
263.499 c h
131.848 263.499 m f
210.852 259.014 m 210.844 259.022 210.836 259.03 210.832 259.038 c 
210.531 259.354 210.223 259.666 209.91 259.975 c 210.25 259.639 210.582 
259.299 210.906 258.952 c 210.891 258.971 210.871 258.995 210.852 
259.014 c h
210.852 259.014 m f
126.555 258.854 m 126.551 258.85 126.551 258.85 126.547 258.85 c 
126.086 258.35 125.637 257.846 125.203 257.323 c 125.203 257.319 
125.199 257.319 125.199 257.319 c 125.637 257.842 126.09 258.354 
126.555 258.854 c h
126.555 258.854 m f
125.109 257.206 m 125.109 257.202 125.105 257.198 125.102 257.194 c 
124.699 256.698 124.312 256.19 123.934 255.67 c 123.934 255.67 123.93 
255.666 123.93 255.666 c 124.309 256.19 124.703 256.702 125.109 257.206 
c h
125.109 257.206 m f
129.891 261.999 m 129.887 261.991 l 129.391 261.584 128.906 261.166 
128.438 260.733 c 128.434 260.733 128.43 260.729 128.426 260.725 c 
128.902 261.163 129.391 261.584 129.891 261.999 c h
129.891 261.999 m f
128.32 260.631 m 128.316 260.627 l 127.82 260.166 127.34 259.682 
126.871 259.194 c 126.871 259.19 126.871 259.19 126.867 259.19 c 127.34 
259.682 127.82 260.166 128.32 260.631 c h
128.32 260.631 m f
122.371 253.331 m 122.371 253.331 122.371 253.327 122.367 253.323 c 
122.055 252.807 121.754 252.28 121.465 251.745 c 121.465 251.745 
121.461 251.741 121.461 251.741 c 121.75 252.28 122.055 252.811 122.371 
253.331 c h
122.371 253.331 m f
119.418 247.182 m 119.418 247.182 l 119.184 246.534 118.973 245.877 
118.777 245.209 c 118.777 245.209 118.777 245.209 118.777 245.209 c 
118.973 245.877 119.184 246.534 119.418 247.182 c h
119.418 247.182 m f
118.648 244.756 m 118.461 244.077 118.285 243.393 118.137 242.694 c 
118.281 243.393 118.461 244.077 118.648 244.756 c 118.652 244.756 
118.648 244.756 118.648 244.756 c h
118.648 244.756 m f
121.277 251.401 m 121.277 251.401 121.277 251.397 121.277 251.397 c 
120.961 250.799 120.668 250.19 120.391 249.569 c 120.391 249.569 
120.391 249.569 120.387 249.569 c 120.668 250.19 120.965 250.799 
121.277 251.401 c h
121.277 251.401 m f
133.652 264.694 m 133.652 264.69 133.648 264.69 133.648 264.69 c 
133.133 264.37 132.625 264.038 132.125 263.69 c 132.125 263.69 132.121 
263.69 132.121 263.686 c 132.621 264.034 133.133 264.37 133.652 264.694 
c h
133.652 264.694 m f
120.219 249.174 m 120.219 249.174 120.215 249.174 120.215 249.17 c 
119.965 248.6 119.73 248.018 119.512 247.432 c 119.512 247.428 119.512 
247.428 119.512 247.424 c 119.73 248.018 119.969 248.6 120.219 249.174 
c h
120.219 249.174 m f
123.668 255.307 m 123.668 255.299 l 123.277 254.752 122.902 254.194 
122.547 253.62 c 122.547 253.62 122.543 253.616 122.543 253.616 c 
122.902 254.194 123.277 254.756 123.668 255.307 c h
123.668 255.307 m f
131.109 245.952 m 131.109 245.956 131.109 245.959 131.113 245.963 c 
131.219 246.315 131.328 246.659 131.445 246.999 c 131.211 246.655 
131.113 246.303 131.109 245.952 c h
131.109 245.952 m f
213.062 256.409 m 213.262 256.151 213.457 255.893 213.648 255.627 c 
213.457 255.893 213.262 256.151 213.062 256.409 c h
213.062 256.409 m f
212.156 257.538 m 212.363 257.291 212.57 257.038 212.773 256.784 c 
212.57 257.038 212.363 257.291 212.156 257.538 c h
212.156 257.538 m f
211.746 258.03 m 211.738 258.034 211.734 258.041 211.73 258.045 c 
211.543 258.26 211.352 258.463 211.16 258.67 c 211.398 258.413 211.633 
258.155 211.859 257.889 c 211.82 257.936 211.785 257.983 211.746 258.03 
c h
211.746 258.03 m f
137.824 266.897 m 137.824 266.897 137.824 266.893 137.824 266.893 c 
137.246 266.639 136.68 266.37 136.125 266.084 c 136.125 266.084 136.121 
266.084 136.121 266.084 c 136.68 266.37 137.25 266.639 137.824 266.897 
c h
137.824 266.897 m f
139.977 267.76 m 139.977 267.76 l 139.328 267.526 138.688 267.272 
138.055 266.999 c 138.684 267.272 139.328 267.526 139.977 267.76 c h
139.977 267.76 m f
209.863 260.022 m 209.516 260.366 209.16 260.698 208.797 261.022 c 
209.16 260.698 209.516 260.362 209.863 260.022 c h
209.863 260.022 m f
135.75 265.893 m 135.746 265.893 l 135.148 265.577 134.559 265.245 
133.98 264.897 c 133.977 264.897 133.977 264.897 133.977 264.897 c 
134.555 265.245 135.148 265.577 135.75 265.893 c h
135.75 265.893 m f
208.797 261.026 m 208.434 261.35 208.066 261.666 207.691 261.975 c 
207.688 261.979 207.688 261.979 207.688 261.979 c 207.312 262.288 
206.93 262.592 206.543 262.885 c 206.539 262.885 206.539 262.885 
206.539 262.885 c 206.148 263.178 205.754 263.467 205.355 263.745 c 
206.559 262.909 207.707 262.002 208.797 261.026 c h
208.797 261.026 m f
75.805 212.995 m 72.711 212.995 70.203 210.491 70.203 207.397 c 70.203 
33.44 l 70.203 30.35 72.711 27.842 75.805 27.842 c 78.895 27.842 81.402 
30.35 81.402 33.44 c 81.402 207.397 l 81.402 210.491 78.895 212.995 
75.805 212.995 c h
75.805 212.995 m f
261.754 212.995 m 258.66 212.995 256.152 210.491 256.152 207.397 c 
256.152 33.44 l 256.152 30.35 258.66 27.842 261.754 27.842 c 264.844 
27.842 267.352 30.35 267.352 33.44 c 267.352 207.397 l 267.352 210.491 
264.848 212.995 261.754 212.995 c h
261.754 212.995 m f
191.906 100.081 m 191.453 103.139 188.598 105.252 185.543 104.795 c 
106.293 92.991 l 103.234 92.538 101.125 89.686 101.578 86.627 c 107.477 
47.006 l 107.695 45.538 108.492 44.217 109.684 43.331 c 110.656 42.612 
111.824 42.233 113.02 42.233 c 113.293 42.233 113.57 42.252 113.844 
42.291 c 193.094 54.096 l 194.562 54.315 195.883 55.108 196.77 56.303 c 
197.652 57.499 198.027 58.991 197.809 60.463 c h
113.484 82.737 m 141.031 86.842 l 145.211 58.288 l 117.734 54.198 l 
156.289 59.94 m 152.109 88.491 l 181.652 92.893 l 185.906 64.35 l h
156.289 59.94 m f
246.125 172.17 m 174.02 196.94 l 172.617 197.424 171.078 197.327 
169.742 196.674 c 168.41 196.022 167.387 194.87 166.906 193.463 c 
152.629 151.909 l 152.148 150.502 152.242 148.963 152.895 147.631 c 
153.547 146.295 154.703 145.276 156.109 144.791 c 228.219 120.03 l 
228.82 119.823 229.434 119.725 230.035 119.725 c 232.363 119.725 
234.535 121.182 235.332 123.506 c 249.602 165.057 l 250.609 167.983 
249.051 171.166 246.125 172.17 c h
165.176 153.522 m 165.043 153.569 l 168.43 163.42 l 175.68 184.53 l 
175.703 184.522 l 189.242 179.87 l 188.906 178.967 l 177.75 149.202 l h
226.559 132.44 m 188.348 145.565 l 199.84 176.229 l 199.871 176.217 l 
237.191 163.397 l h
226.559 132.44 m f
304.086 240.834 m 231.051 240.834 l 228.438 263.413 209.211 281.002 
185.945 281.002 c 151.609 281.002 l 128.344 281.002 109.117 263.413 
106.504 240.834 c 33.473 240.834 l 15.016 240.834 0 225.819 0 207.362 c 
0 33.471 l 0 15.014 15.016 -0.001 33.473 -0.001 c 304.086 -0.001 l 
322.543 -0.001 337.559 15.014 337.559 33.471 c 337.559 207.362 l 
337.559 225.819 322.543 240.834 304.086 240.834 c h
118.137 242.694 m 118.285 243.393 118.461 244.077 118.648 244.756 c 
118.691 244.909 118.734 245.061 118.777 245.209 c 118.973 245.877 
119.184 246.534 119.418 247.182 c 119.449 247.264 119.484 247.346 
119.512 247.432 c 119.73 248.018 119.969 248.6 120.215 249.174 c 
120.273 249.307 120.332 249.44 120.391 249.573 c 120.668 250.19 120.965 
250.799 121.277 251.397 c 121.336 251.514 121.402 251.631 121.465 
251.749 c 121.754 252.284 122.055 252.807 122.367 253.327 c 122.43 
253.424 122.484 253.526 122.547 253.624 c 122.902 254.194 123.277 
254.752 123.668 255.303 c 123.754 255.428 123.844 255.549 123.934 
255.674 c 124.312 256.19 124.699 256.698 125.102 257.194 c 125.137 
257.237 125.168 257.28 125.203 257.323 c 125.637 257.846 126.086 258.35 
126.551 258.85 c 126.656 258.967 126.766 259.081 126.871 259.194 c 
127.34 259.682 127.82 260.166 128.316 260.627 c 128.355 260.666 128.398 
260.698 128.438 260.737 c 128.906 261.17 129.391 261.584 129.887 
261.995 c 130.004 262.088 130.121 262.186 130.238 262.28 c 130.762 
262.702 131.297 263.108 131.848 263.499 c 131.938 263.565 132.035 
263.627 132.125 263.69 c 132.625 264.038 133.133 264.37 133.648 264.69 
c 133.762 264.76 133.867 264.831 133.98 264.897 c 134.559 265.245 
135.148 265.577 135.746 265.893 c 135.871 265.959 136 266.022 136.125 
266.084 c 136.684 266.37 137.25 266.639 137.824 266.897 c 137.902 
266.928 137.977 266.967 138.059 267.002 c 138.688 267.276 139.328 
267.526 139.977 267.76 c 140.043 267.784 140.109 267.815 140.176 
267.838 c 140.914 268.1 141.664 268.338 142.426 268.553 c 142.914 
268.69 143.406 268.815 143.902 268.928 c 144.895 269.159 145.902 
269.342 146.922 269.483 c 148.457 269.694 150.02 269.803 151.609 
269.803 c 185.949 269.803 l 186.594 269.803 187.23 269.78 187.867 
269.745 c 188.051 269.733 188.234 269.721 188.418 269.706 c 188.898 
269.67 189.375 269.627 189.852 269.573 c 190.02 269.553 190.188 269.538 
190.355 269.514 c 190.98 269.436 191.602 269.342 192.215 269.229 c 
192.266 269.217 192.312 269.206 192.363 269.198 c 192.93 269.088 
193.492 268.963 194.051 268.827 c 194.211 268.788 194.371 268.749 
194.527 268.706 c 195.02 268.581 195.504 268.444 195.984 268.295 c 
196.102 268.256 196.223 268.225 196.34 268.186 c 196.945 267.995 
197.539 267.784 198.129 267.561 c 198.168 267.545 198.207 267.53 
198.246 267.514 c 198.793 267.303 199.328 267.077 199.863 266.838 c 
199.973 266.788 200.086 266.737 200.199 266.686 c 200.723 266.444 
201.238 266.194 201.746 265.924 c 201.789 265.905 201.828 265.885 
201.867 265.866 c 202.445 265.557 203.02 265.237 203.578 264.897 c 
203.59 264.893 203.594 264.885 203.605 264.881 c 204.137 264.557 204.66 
264.217 205.176 263.87 c 205.234 263.827 205.293 263.784 205.355 
263.745 c 205.754 263.467 206.152 263.182 206.539 262.889 c 206.539 
262.889 206.543 262.889 206.543 262.885 c 206.93 262.592 207.312 
262.291 207.688 261.983 c 207.688 261.979 207.691 261.979 207.691 
261.979 c 208.066 261.67 208.434 261.35 208.797 261.026 c 209.16 
260.698 209.516 260.366 209.863 260.026 c 209.879 260.01 209.895 
259.995 209.91 259.975 c 210.227 259.67 210.531 259.358 210.832 259.038 
c 210.84 259.03 210.848 259.022 210.852 259.014 c 210.871 258.995 
210.891 258.975 210.906 258.956 c 210.992 258.862 211.074 258.768 
211.16 258.674 c 211.352 258.467 211.543 258.26 211.727 258.049 c 
211.734 258.041 211.738 258.038 211.746 258.03 c 211.785 257.983 211.82 
257.94 211.859 257.893 c 211.961 257.776 212.059 257.659 212.156 
257.541 c 212.363 257.291 212.57 257.041 212.773 256.788 c 212.871 
256.663 212.969 256.538 213.062 256.413 c 213.262 256.155 213.457 
255.897 213.648 255.631 c 213.691 255.573 213.73 255.514 213.77 255.459 
c 214.645 254.241 215.441 252.967 216.152 251.639 c 216.191 251.565 
216.234 251.491 216.273 251.416 c 216.422 251.131 216.562 250.842 
216.703 250.557 c 216.773 250.413 216.844 250.272 216.91 250.131 c 
217.031 249.87 217.148 249.612 217.266 249.35 c 217.344 249.17 217.422 
248.995 217.496 248.811 c 217.602 248.569 217.699 248.327 217.797 
248.081 c 217.875 247.874 217.953 247.666 218.031 247.459 c 218.117 
247.229 218.203 246.999 218.281 246.764 c 218.363 246.538 218.438 
246.303 218.512 246.073 c 218.586 245.854 218.656 245.635 218.723 
245.416 c 218.797 245.159 218.871 244.901 218.941 244.639 c 218.996 
244.436 219.055 244.237 219.105 244.034 c 219.18 243.733 219.25 243.428 
219.32 243.127 c 219.359 242.959 219.398 242.791 219.434 242.624 c 
219.535 242.147 219.625 241.67 219.703 241.19 c 207.504 241.19 l 
207.391 241.956 207.258 242.702 207.102 243.428 c 207.098 243.448 
207.098 243.467 207.094 243.483 c 206.938 244.198 206.762 244.893 
206.566 245.573 c 206.559 245.6 206.551 245.631 206.543 245.663 c 
206.348 246.331 206.129 246.979 205.895 247.612 c 205.879 247.647 
205.867 247.682 205.855 247.721 c 205.621 248.346 205.363 248.952 
205.086 249.541 c 205.07 249.577 205.055 249.616 205.035 249.655 c 
204.762 250.241 204.465 250.803 204.152 251.354 c 204.133 251.389 
204.109 251.424 204.09 251.459 c 203.773 252.006 203.441 252.53 203.09 
253.038 c 203.066 253.069 203.043 253.104 203.02 253.135 c 202.668 
253.643 202.293 254.127 201.902 254.592 c 201.879 254.62 201.855 
254.647 201.832 254.674 c 201.438 255.139 201.023 255.584 200.598 
256.006 c 200.527 256.077 l 200.094 256.499 199.641 256.901 199.176 
257.28 c 199.152 257.299 199.133 257.315 199.109 257.334 c 198.637 
257.713 198.148 258.069 197.645 258.405 c 197.625 258.416 197.605 
258.432 197.586 258.444 c 197.074 258.78 196.547 259.092 196.004 
259.377 c 195.988 259.389 195.969 259.397 195.953 259.405 c 195.406 
259.694 194.84 259.956 194.262 260.194 c 194.246 260.198 194.234 
260.206 194.223 260.209 c 193.637 260.448 193.035 260.663 192.422 
260.85 c 192.41 260.85 192.402 260.854 192.391 260.858 c 191.77 261.045 
191.137 261.206 190.484 261.338 c 190.477 261.338 190.473 261.342 
190.469 261.342 c 189.812 261.475 189.145 261.581 188.457 261.659 c 
188.457 261.659 188.453 261.659 188.453 261.659 c 187.766 261.737 
187.062 261.788 186.344 261.807 c 186.109 261.811 185.875 261.823 
185.641 261.823 c 151.922 261.823 l 151.359 261.823 150.812 261.799 
150.27 261.764 c 150.172 261.756 150.074 261.752 149.977 261.745 c 
149.457 261.706 148.945 261.651 148.441 261.577 c 148.344 261.565 
148.254 261.549 148.16 261.534 c 147.637 261.456 147.125 261.362 
146.625 261.249 c 146.617 261.249 146.609 261.245 146.605 261.245 c 
146.102 261.131 145.613 260.995 145.129 260.846 c 145.051 260.827 
144.973 260.803 144.898 260.78 c 144.426 260.627 143.969 260.463 
143.516 260.284 c 143.441 260.256 143.367 260.225 143.293 260.194 c 
142.355 259.807 141.457 259.358 140.602 258.842 c 140.551 258.811 
140.504 258.784 140.453 258.752 c 140.035 258.495 139.629 258.221 
139.23 257.932 c 139.18 257.897 139.133 257.858 139.082 257.823 c 
138.262 257.213 137.484 256.541 136.762 255.807 c 136.738 255.784 
136.715 255.76 136.691 255.737 c 136.336 255.37 135.988 254.987 135.656 
254.592 c 135.629 254.557 135.598 254.522 135.57 254.487 c 134.887 
253.663 134.258 252.776 133.688 251.827 c 133.68 251.819 133.676 
251.811 133.672 251.803 c 133.387 251.331 133.117 250.842 132.863 
250.342 c 132.848 250.311 132.832 250.28 132.816 250.252 c 132.301 
249.229 131.84 248.143 131.445 247.002 c 131.328 246.663 131.219 
246.319 131.109 245.971 c 131.109 245.963 131.109 245.959 131.105 
245.956 c 130.652 244.456 130.297 242.866 130.059 241.194 c 117.852 
241.194 l 117.934 241.694 118.031 242.198 118.137 242.694 c h
196.219 240.834 m 141.344 240.834 l 142.293 245.686 144.965 250.616 
151.922 250.616 c 185.641 250.616 l 192.598 250.616 195.27 245.686 
196.219 240.834 c h
11.199 94.288 m 34.637 101.975 l 37.758 92.377 l 46.137 66.592 l 11.199 
55.127 l h
326.355 33.471 m 326.355 21.19 316.367 11.202 304.086 11.202 c 33.473 
11.202 l 21.191 11.202 11.199 21.19 11.199 33.471 c 11.199 43.338 l 
19.199 45.963 l 54.934 57.69 l 57.867 58.651 59.469 61.807 58.516 
64.741 c 43.551 110.78 l 43.094 112.194 42.09 113.37 40.762 114.041 c 
39.434 114.717 37.895 114.834 36.48 114.37 c 19.199 108.702 l 11.199 
106.077 l 11.199 207.362 l 11.199 219.643 21.191 229.635 33.473 229.635 
c 304.086 229.635 l 304.547 229.635 305.004 229.616 305.461 229.588 c 
305.594 229.581 305.727 229.569 305.855 229.557 c 306.195 229.534 
306.531 229.499 306.863 229.456 c 306.992 229.44 307.121 229.424 
307.246 229.405 c 308.141 229.28 309.02 229.096 309.875 228.866 c 
309.984 228.838 310.094 228.803 310.203 228.772 c 310.539 228.678 
310.875 228.573 311.203 228.463 c 311.305 228.428 311.402 228.393 
311.504 228.358 c 312.352 228.061 313.176 227.709 313.973 227.311 c 
314.043 227.276 314.117 227.237 314.191 227.202 c 314.531 227.026 
314.871 226.842 315.199 226.647 c 315.262 226.612 315.324 226.581 
315.383 226.545 c 316.168 226.081 316.926 225.565 317.645 225.01 c 
317.68 224.987 317.715 224.959 317.746 224.932 c 318.086 224.666 
318.418 224.393 318.742 224.112 c 318.766 224.092 318.789 224.069 
318.812 224.049 c 319.512 223.432 320.172 222.768 320.793 222.069 c 
320.801 222.057 320.809 222.049 320.816 222.038 c 321.121 221.69 
321.418 221.331 321.703 220.963 c 321.707 220.959 321.707 220.956 
321.711 220.952 c 322.293 220.202 322.824 219.413 323.309 218.588 c 
323.309 218.588 323.309 218.588 323.309 218.584 c 325.242 215.288 
326.359 211.452 326.359 207.362 c 326.359 33.471 l h
326.355 33.471 m f
Q Q
showpage
%%Trailer
count op_count sub {pop} repeat
countdictstack dict_count sub {end} repeat
cairo_eps_state restore
%%EOF
