%!PS-Adobe-3.0 EPSF-3.0
%%Creator: cairo 1.10.2 (http://cairographics.org)
%%CreationDate: Mon Apr 20 09:13:03 2015
%%Pages: 1
%%BoundingBox: 0 -1 49 21
%%DocumentData: Clean7Bit
%%LanguageLevel: 2
%%EndComments
%%BeginProlog
/cairo_eps_state save def
/dict_count countdictstack def
/op_count count 1 sub def
userdict begin
/q { gsave } bind def
/Q { grestore } bind def
/cm { 6 array astore concat } bind def
/w { setlinewidth } bind def
/J { setlinecap } bind def
/j { setlinejoin } bind def
/M { setmiterlimit } bind def
/d { setdash } bind def
/m { moveto } bind def
/l { lineto } bind def
/c { curveto } bind def
/h { closepath } bind def
/re { exch dup neg 3 1 roll 5 3 roll moveto 0 rlineto
      0 exch rlineto 0 rlineto closepath } bind def
/S { stroke } bind def
/f { fill } bind def
/f* { eofill } bind def
/n { newpath } bind def
/W { clip } bind def
/W* { eoclip } bind def
/BT { } bind def
/ET { } bind def
/pdfmark where { pop globaldict /?pdfmark /exec load put }
    { globaldict begin /?pdfmark /pop load def /pdfmark
    /cleartomark load def end } ifelse
/BDC { mark 3 1 roll /BDC pdfmark } bind def
/EMC { mark /EMC pdfmark } bind def
/cairo_store_point { /cairo_point_y exch def /cairo_point_x exch def } def
/Tj { show currentpoint cairo_store_point } bind def
/TJ {
  {
    dup
    type /stringtype eq
    { show } { -0.001 mul 0 cairo_font_matrix dtransform rmoveto } ifelse
  } forall
  currentpoint cairo_store_point
} bind def
/cairo_selectfont { cairo_font_matrix aload pop pop pop 0 0 6 array astore
    cairo_font exch selectfont cairo_point_x cairo_point_y moveto } bind def
/Tf { pop /cairo_font exch def /cairo_font_matrix where
      { pop cairo_selectfont } if } bind def
/Td { matrix translate cairo_font_matrix matrix concatmatrix dup
      /cairo_font_matrix exch def dup 4 get exch 5 get cairo_store_point
      /cairo_font where { pop cairo_selectfont } if } bind def
/Tm { 2 copy 8 2 roll 6 array astore /cairo_font_matrix exch def
      cairo_store_point /cairo_font where { pop cairo_selectfont } if } bind def
/g { setgray } bind def
/rg { setrgbcolor } bind def
/d1 { setcachedevice } bind def
%%EndProlog
%%Page: 1 1
%%BeginPageSetup
%%PageBoundingBox: 0 -1 49 21
%%EndPageSetup
q 0 -1 49 22 rectclip q
0 20.176 49 -21 re W n
0.137255 0.121569 0.12549 rg
2.398 11.973 m 5.07 11.973 7.621 12.86 9.691 14.465 c 11.762 12.86 
14.316 11.973 16.98 11.973 c 19.648 11.973 22.203 12.86 24.273 14.465 c 
26.344 12.86 28.895 11.973 31.562 11.973 c 34.23 11.973 36.785 12.86 
38.855 14.465 c 40.926 12.86 43.477 11.973 46.148 11.973 c 47.473 
11.973 48.547 13.047 48.547 14.372 c 48.547 15.7 47.473 16.774 46.148 
16.774 c 44.039 16.774 42.055 17.7 40.695 19.321 c 40.238 19.864 39.566 
20.176 38.855 20.176 c 38.145 20.176 37.473 19.864 37.02 19.321 c 
35.656 17.7 33.668 16.774 31.562 16.774 c 29.457 16.774 27.473 17.7 
26.113 19.321 c 25.656 19.864 24.984 20.176 24.277 20.176 c 24.273 
20.176 l 23.566 20.176 22.895 19.864 22.438 19.321 c 21.074 17.7 19.09 
16.774 16.98 16.774 c 14.879 16.774 12.891 17.7 11.527 19.321 c 11.07 
19.864 10.398 20.176 9.691 20.176 c 8.953 20.188 8.305 19.86 7.852 
19.317 c 6.492 17.7 4.508 16.774 2.398 16.774 c 1.074 16.774 0 15.7 0 
14.372 c 0 13.047 1.074 11.973 2.398 11.973 c h
2.398 11.973 m f
46.148 4.801 m 44.039 4.801 42.051 5.727 40.695 7.348 c 40.238 7.891 
39.566 8.204 38.855 8.204 c 38.145 8.204 37.473 7.891 37.02 7.348 c 
35.656 5.727 33.668 4.801 31.562 4.801 c 29.457 4.801 27.469 5.727 
26.113 7.348 c 25.656 7.891 24.984 8.204 24.273 8.204 c 23.566 8.204 
22.895 7.891 22.438 7.348 c 21.074 5.727 19.086 4.801 16.98 4.801 c 
14.875 4.801 12.887 5.727 11.523 7.348 c 11.07 7.891 10.398 8.204 9.688 
8.204 c 8.977 8.204 8.305 7.887 7.848 7.344 c 6.492 5.727 4.508 4.801 
2.398 4.801 c 1.074 4.801 0 3.727 0 2.399 c 0 1.075 1.074 0 2.398 0 c 
5.07 0 7.621 0.887 9.691 2.493 c 11.762 0.887 14.316 0 16.98 0 c 19.648 
0 22.203 0.887 24.273 2.493 c 26.344 0.887 28.895 0 31.562 0 c 34.23 0 
36.785 0.887 38.855 2.493 c 40.926 0.887 43.477 0 46.148 0 c 47.473 0 
48.547 1.075 48.547 2.399 c 48.547 3.723 47.473 4.801 46.148 4.801 c h
46.148 4.801 m f
Q Q
showpage
%%Trailer
count op_count sub {pop} repeat
countdictstack dict_count sub {end} repeat
cairo_eps_state restore
%%EOF
